<svg xmlns="http://www.w3.org/2000/svg" viewBox="0 0 76.7 34.7">
  <defs>
    <style>
      .a {
        fill: #cdcbcb;
      }

      .b {
        fill: none;
        stroke: black;
        stroke-miterlimit: 10;
        stroke-width: 0.5px;
      }

      .c {
        isolation: isolate;
      }

      .d {
        fill: #253677;
      }
    </style>
  </defs>
  <title>id</title>
  <g>
    <path class="a" d="M32.4,23.8a1.1,1.1,0,0,0-.8,1,3.6,3.6,0,0,1-.2,1.1l-0.2.2a0.4,0.4,0,0,0,.1.5l0.5,0.3a0.7,0.7,0,0,0-.3.9,6.9,6.9,0,0,0,.3,2,1.7,1.7,0,0,0,.6,1,1.5,1.5,0,0,1,.8.4,3.9,3.9,0,0,0,1,.8h0.2a1.4,1.4,0,0,1,.2-0.6,5.8,5.8,0,0,0,1.4-.5h0.3l0.4,0.3a0.5,0.5,0,0,0,.5-0.1,0.7,0.7,0,0,0-.3-0.7,9.1,9.1,0,0,1-2.1-3.7,2.1,2.1,0,0,0-.3-0.7l-0.3-.2c-0.8-.4-0.6-1.2-1.1-1.8A0.7,0.7,0,0,0,32.4,23.8ZM12.3,9.3c-0.4,2.8-3.8,2.9-6,2.6H5.7a1.8,1.8,0,0,0-1.1.8,3.2,3.2,0,0,0-.3,1.4A4.1,4.1,0,0,0,4.4,16a1.9,1.9,0,0,0,1.3,1.3A1.9,1.9,0,0,0,7,17H7.3l0.2,0.2,0.9,1.2a1.8,1.8,0,0,0,.5.7l0.6,0.2a1.8,1.8,0,0,0,1.5-.6,0.7,0.7,0,0,0,.2-0.6c-0.1-.7-1.5-0.4-1.6-1.1a0.9,0.9,0,0,1,.6-0.8c0.6,0.7,2-2,2.4-2.3a4.8,4.8,0,0,1,2.3-.7h1.6c1.2,0.3,2,1.5,3.2,1.8a12.7,12.7,0,0,0,2,.1l1.4,0.4,2.8,1a15.7,15.7,0,0,1,3.3,1.9c0.5,0.3.8,0.8,1.2,1a1.4,1.4,0,0,0,1.4-.2,1.3,1.3,0,0,0,.4-1.3,2.2,2.2,0,0,0-.5-0.8A19.2,19.2,0,0,1,29,10.8L27.9,7A5.2,5.2,0,0,0,27,5c-1-1.1-2.7-.9-4.2-0.7A41.5,41.5,0,0,0,18,5.4a21.6,21.6,0,0,0-5.4,2.9l-0.3.3V9.3Z"/>
    <path class="a" d="M63.5,21.3l-1.2-.3H61.6a1.3,1.3,0,0,1-.5-0.3,3.4,3.4,0,0,0-1.4-.2L59,20.2a1,1,0,0,0-.7.2,0.8,0.8,0,0,0-.2.5,0.3,0.3,0,0,1-.4.2l-0.3-.3a0.6,0.6,0,0,0-.7-0.1l-0.6.5a0.6,0.6,0,0,1-.7.2H55.2a0.7,0.7,0,0,0-.5.4,1.7,1.7,0,0,1-.3.6,0.6,0.6,0,0,1-.9-0.1l-0.2-.3a0.4,0.4,0,0,0-.5.1,0.7,0.7,0,0,0-.1.5c0,0.2.1,0.5-.2,0.5s-0.2-.3-0.2-0.5a0.5,0.5,0,0,0-.5-0.4,2.9,2.9,0,0,0-.1,1.6,1.6,1.6,0,0,1,0,.7,0.8,0.8,0,0,0-.2.4,2,2,0,0,0-.1,1.7,1,1,0,0,0,1.1.6h0.3c0.1,0,.3.1,0.2,0.2s1.3,0.4,1.9.1l0.5-.3H56a1.5,1.5,0,0,1,.4-0.4,1.8,1.8,0,0,1,.7-0.5c0.4,0,.7.4,1.1,0.4a0.5,0.5,0,0,1,.4-0.7c0.6-.1.6,1.1,1.1,0.2s0.2-.9.8-0.8a1.4,1.4,0,0,0,1.1-.2,1.6,1.6,0,0,1,.9-0.5h0.4a1.4,1.4,0,0,0,1-.7l1.1-.6h0.1V22.8a6.1,6.1,0,0,0-.5-1.2,1.5,1.5,0,0,1-.9.2,0.3,0.3,0,0,0,0-.4C63.7,21.3,63.7,21.3,63.5,21.3Z"/>
    <path class="b" d="M43.4,0.3h33V34.5h-33V0.3h0Z"/>
    <path class="b" d="M0.3,0.3V34.5H41.5V0.3H0.3Z"/>
    <g class="c">
      <path class="d" d="M14,27.9V19.3h1.1v8.6H14Z"/>
      <path class="d" d="M17.1,27.9V19.3h4.5a2.9,2.9,0,0,1,1.3.6,3.5,3.5,0,0,1,1,1.5,5.8,5.8,0,0,1,.3,2,6,6,0,0,1-.2,1.7,4.2,4.2,0,0,1-.6,1.3l-0.8.8-1,.4H17.1Zm1.1-1h1.8l1.3-.2,0.8-.4a2.7,2.7,0,0,0,.6-1.1,5.3,5.3,0,0,0,.2-1.7,4,4,0,0,0-.4-2.1,2.2,2.2,0,0,0-1.1-1l-1.5-.2H18.3v6.6Z"/>
    </g>
  </g>
</svg>
