<svg xmlns="http://www.w3.org/2000/svg" viewBox="0 0 41.8 34.7">
  <defs>
    <style>
      .a {
        fill: none;
        stroke: black;
        stroke-miterlimit: 10;
        stroke-width: 0.5px;
      }

      .b {
        isolation: isolate;
      }

      .c {
        fill: #253677;
      }

      .d {
        fill: #cdcbcb;
      }
    </style>
  </defs>
  <title>IP</title>
  <path class="a" d="M0.3,0.3V34.5H41.5V0.3H0.3Z"/>
  <g class="b">
    <path class="c" d="M24,29.9V21.3h1.1v8.6H24Z"/>
    <path class="c" d="M27.1,29.9V21.3h4.5l1.1,0.4a2.1,2.1,0,0,1,.7.8,2.8,2.8,0,0,1-.4,3,3.3,3.3,0,0,1-2.5.8H28.3v3.5H27.1Zm1.1-4.5h2.2a2.4,2.4,0,0,0,1.6-.4,1.5,1.5,0,0,0,.5-1.2,1.6,1.6,0,0,0-.3-0.9,1.3,1.3,0,0,0-.7-0.5H28.3v3.1Z"/>
  </g>
  <path class="d" d="M9.6,6.6c-0.9,1.8-.7,4.1-0.8,6.2H8.6c-0.5,2.4.9,4.4,0.3,6.8l-0.6.2a1.3,1.3,0,0,0,0,1.2l-0.2.2c0.2,0.9.3,1.8,0.5,2.7H8.8A1.7,1.7,0,0,0,9.7,25a2.3,2.3,0,0,0,2.3.3V25.1l0.6-.3c1.9-2.4.3-5.3,4.8-5.6V18.5a2,2,0,0,1,1.5-.5l0.6-2.4c1.5-2.1,6.8-3.1,6.2-6H25.4l0.3-.2V9.3c1.7-.7,3.3-1.1,3.9-2.9H29.4A3.2,3.2,0,0,0,29.2,5l-0.3-.2a0.3,0.3,0,0,0-.3-0.3V4.3L27.6,4c-3.2.5-5.7,3-8.9,0.9a0.9,0.9,0,0,0-.6-0.6l-0.8.3V4.8l-0.6.3a8.3,8.3,0,0,0-3.2-.6V4.6L12.7,5V5.1A3.5,3.5,0,0,0,9.6,6.6Z"/>
</svg>
