<?xml version="1.0" encoding="utf-8"?>
<!-- Generator: Adobe Illustrator 16.0.3, SVG Export Plug-In . SVG Version: 6.00 Build 0)  -->
<!DOCTYPE svg PUBLIC "-//W3C//DTD SVG 1.1//EN" "http://www.w3.org/Graphics/SVG/1.1/DTD/svg11.dtd">
<svg version="1.1"
	 id="Chile_1_" xmlns:inkscape="http://www.inkscape.org/namespaces/inkscape" xmlns:sodipodi="http://sodipodi.sourceforge.net/DTD/sodipodi-0.dtd"
	 xmlns="http://www.w3.org/2000/svg" xmlns:xlink="http://www.w3.org/1999/xlink" x="0px" y="0px" viewBox="252.616 337.941 25.292 53.102" 
	 xml:space="preserve">
<a xlink:href="/regions/IV" >
	<g id="IV">
		<path fill="gray" d="M252.616,364.573c0.152-0.547,0.347-1.09,0.393-1.653c0.335,0.311,0.769,0.914,1.414,0.631
			c0.415-0.182,0.602-0.336,0.391-0.786h0.235c0.044-0.453,0.278-0.834,0.474-1.257c0.169,0.141,0.311,0.258,0.471,0.393
			c0.517-0.468,0.521-1.43,0.316-2.045c-0.167-0.504-0.88-1.306-0.153-1.258c-0.042-0.236,0.072-0.372,0.314-0.399
			c0.018-0.072-0.008-0.123-0.08-0.155c0.067-0.095,0.095-0.201,0.08-0.313c0.085,0,0.167-0.027,0.236-0.082
			c0.646,0.81,0.798-1.014,0.628-1.49c-0.098-0.276-0.483-0.348-0.589-0.67c-0.143-0.423-0.245-0.864-0.356-1.294
			c0.314-0.357,0.047-0.671,0.24-1.006c0.532-0.931-0.135-0.784-0.395-1.661c-0.203-0.681,0.274-1.313,0.157-1.962
			c-0.049-0.264-0.483-1.079-0.629-1.331c-0.459-0.793-0.947-1.014-1.787-1.511c-0.686-0.405-0.478-1.141-0.571-1.714
			c-0.13-0.802-0.109-1.544-0.394-2.436l-0.156,0.154c-0.271-0.708-0.19-1.778,0.377-2.303c0.678,0.444,1.551,0.311,2.014-0.333
			c0.056-0.081,2.209,0.389,2.643,0.428c0.021,0.5-0.018,1.125,0.158,1.594c0.218,0.569,0.83,0.222,1.243,0.311
			c0.515,0.11-0.18,0.802,0.29,0.906c1.016,0.227,1.746-2.438,1.527-3.063c0.246-0.082,0.49-0.18,0.65-0.375
			c0.473-0.573,1.328,0.278,1.785-0.285c0.029-0.035,1.815-1.423,1.406-1.469c0.412,0.05,1.253-0.311,1.446-0.163
			c0.329,0.248,0.755-0.163,1.064,0.121c0.175,0.161-0.044,1.121,0.249,1.539c0.451,0.646,1.193,3.04,0.586,3.63
			c0.802,1.378,1.588-0.342,2.74,0.442c1.357,0.925,1.004,2.766,3.158,2.327c-0.77,0.932,0.325,2.292,0.652,3.202
			c0.244,0.683,0.637,1.619,0.512,2.356c-0.133,0.774,0.691,1.522,0.869,2.333c0.2,0.899,0.191,1.857,0.191,2.781
			c0,0.376-0.814,2.268-0.394,2.268c0.687,0,1.831,0.006,1.884,1.021c0.039,0.729-0.709,0.782-0.709,1.416
			c0,2.112-1.4,2.8-3.252,1.94c-0.82-0.38,0.047,1.306-0.006,1.515c-0.185,0.731-0.888,0.888-0.953,1.862
			c-0.08,1.189-0.592,2.347-0.855,3.406c-0.193,0.77-0.409,2.04-0.158,2.785c0.205,0.604,0.91,0.802,1.142,1.376
			c-1.534-0.287-1.016,1.097-1.729,1.808c-0.736,0.734-0.517-2.022-1.74,0.42c-0.396,0.789-0.305,2.246-0.104,3.031
			c0.246,0.974-0.438,2.367-0.197,3.453c0.258,1.166,1.336,2.064,1.729,3.143c0.216,0.596,0.295,0.938,0.801,1.371
			c0.516,0.441,1.324-0.061,1.834,0.277c0.405,0.271,0.781,0.508,0.941,0.982c0.04,0.12-0.262,1.364-0.277,1.378
			c-0.311,0.278-2.447-0.233-1.224,0.778l-0.339,0.104c-0.079-0.443-0.099-0.832-0.527-1.031l0.189-1.094l-1.1-0.502l-0.062,0.439
			c-0.386-0.098-1.396-0.374-1.618-0.724c-0.292-0.46,0.142-0.976-0.063-1.249c0.071,0.09-1.307-0.606-1.156-0.617
			c-0.506,0.027-1.186,0.201-1.657,0.367c-0.409,0.146-0.85,0.779-1.325,0.396c-0.469-0.378-0.852-0.542-1.488-0.521
			c-0.149,0.223-0.127,0.434,0.062,0.625c-0.717,0.582-1.47,1.432-2.349,1.687l-0.37-0.566c-0.823,0.71-1.259,1.244-2.441,1.126
			c-0.383-0.041-1.285-0.737-1.555-0.505c-0.743-0.772-0.306-0.838-0.338-1.706c-0.041-1.097-0.974-2.115-1.049-3.248
			c-0.153-2.299-2.124-4.688-1.99-6.967c0.13-2.209-1.13-3.846-1.13-5.973c0-1.094-0.178-2.125-0.158-3.225
			C252.711,366.792,252.616,365.631,252.616,364.573L252.616,364.573z"/>
	</g>
</a>
</svg>
