<svg xmlns="http://www.w3.org/2000/svg" xmlns:xlink="http://www.w3.org/1999/xlink" height="32" width="32" version="1.1" viewBox="0 0 32 32">
	<g id="syn-symbol">
		<circle class="syn-symbol" cx="10" cy="10" r="10" fill="#f8cf7a"	/>
		<g>
			<path fill="white" d="M6.3,13.9c0.8,0.4,1.9,0.8,3.2,0.8c1.5,0,2.4-0.7,2.4-1.8c0-1-0.7-1.6-2.3-2.2C7.3,10,6,8.9,6,7c0-2.1,1.8-3.8,4.6-3.8
				c1.4,0,2.5,0.3,3.1,0.7l-0.6,1.9c-0.5-0.3-1.4-0.6-2.6-0.6C9,5.2,8.4,6,8.4,6.8c0,1,0.8,1.5,2.5,2.1c2.3,0.9,3.4,2,3.4,3.9
				c0,2.1-1.6,3.9-5,3.9c-1.4,0-2.8-0.4-3.5-0.8L6.3,13.9z"/>
		</g>
	</g>						
</svg>