<?xml version="1.0" encoding="utf-8"?>
<!-- Generator: Adobe Illustrator 16.0.3, SVG Export Plug-In . SVG Version: 6.00 Build 0)  -->
<!DOCTYPE svg PUBLIC "-//W3C//DTD SVG 1.1//EN" "http://www.w3.org/Graphics/SVG/1.1/DTD/svg11.dtd">
<svg version="1.1"
	 id="Chile_1_" xmlns:inkscape="http://www.inkscape.org/namespaces/inkscape" xmlns:sodipodi="http://sodipodi.sourceforge.net/DTD/sodipodi-0.dtd"
	 xmlns="http://www.w3.org/2000/svg" xmlns:xlink="http://www.w3.org/1999/xlink" x="0px" y="0px" viewBox="255.615 386.299 23.643 36.251"
	 xml:space="preserve">
<a xlink:href="/regions/V" >
	<g id="V">
		<path fill="gray" d="M256.309,409.267c-0.147-0.285-0.332-0.552-0.551-0.785c0.459-0.312,0.769-0.375,1.099-0.707
			c0.218-0.22,0.041-0.583,0.472-0.789c0.659,0.198,0.848-0.164,0.984-0.705c0.069-0.274,0.354-1.13,0.354-1.335
			c0.002-0.599-0.638-1.201-0.551-1.725c0.088-0.529,1.129-0.197,0.473-1.178c1.671-0.278-0.104-2.706,0.471-3.572
			c0.57-0.854,0.402-2.146-0.547-2.471c0.033-0.883-0.427-0.865-0.786-1.418c-0.502-0.767-0.353-0.949-0.316-1.804
			c0.041-0.894-0.157-1.925-0.157-2.749c0-0.434-0.371-0.617,0.157-1.022l-0.052-0.104c0.261-0.231,1.179,0.47,1.554,0.507
			c1.181,0.121,1.621-0.411,2.442-1.126l0.369,0.568c0.879-0.257,1.634-1.104,2.349-1.686c-0.189-0.191-0.215-0.404-0.062-0.628
			c0.634-0.019,1.019,0.145,1.486,0.521c0.478,0.383,0.916-0.247,1.327-0.394c0.475-0.167,1.152-0.337,1.656-0.366
			c-0.151,0.011,1.228,0.707,1.157,0.617c0.201,0.266-0.225,0.795,0.062,1.248c0.223,0.352,1.23,0.626,1.618,0.725l0.063-0.441
			l1.099,0.504l-0.188,1.096c0.429,0.201,0.447,0.584,0.527,1.031c0.859-0.345,0.924,2.211,1.175,2.841
			c0.161,0.409,0.602,0.213,0.887,0.556c0.459,0.553,0.149,1.194,0.526,1.765c0.286,0.435,0.792,0.483,1.1,0.938
			c0.295,0.441-0.008,0.898,0.472,1.332c-1.196-0.016-0.226,1.994-0.042,2.548c0.328,0.987,1.324,1.882,2.32,2.171
			c-0.059,0.359-0.133,1.359-0.314,1.653c-0.285,0.457-0.781,0.462-0.945,1.021c-0.15,0.512,0.344,0.979,0.062,1.701
			c-0.163,0.41-1.298,0.536-1.144,1.084c0.125,0.438-0.119,0.57-0.479,0.616c0.111-0.819-0.681-1.593-1.453-1.249
			c-0.472-0.414-0.184-1.334-0.707-1.473c-0.438-0.109-0.703,0.816-1.105,1.062c-0.567-0.538-0.562-1.288-0.943-1.902
			c-0.441-0.746-1.076-0.542-1.869-0.312c-0.068-0.833-1.612-0.572-2.327-0.44c-0.494,0.093-0.38,0.649-1.002,0.68
			c-0.365,0.017-1.215-0.042-0.862,0.577c0.332,0.58,0.112,0.966,0.131,1.488c0.012,0.287,0.4,1.492,0.369,1.598
			c-0.375,1.269-2.67,0.36-3.213,1.031c0.228,0.803,0.556,1.447,0.018,2.208c-0.292,0.409-0.786,0.704-1.288,0.633
			c-0.554-0.081-0.169,0.448-0.239,0.602c-0.326,0.712-0.098,1.138,0.022,1.675c0.297,1.312-0.768,1.125-0.847,2.197l-0.221-0.249
			l-0.344,0.537l0.966,1.125c-0.697,1.245-1.696-0.296-2.352,0.37c-0.382,0.391-0.233,1.297-0.263,1.783
			c-0.695-0.305-1.583,0.868-2.083,1.306c-0.383-0.284-0.802-0.35-1.193-0.58c-0.108-0.194,0.311-1.716,0.376-1.917
			c0.305-0.934,0.356-0.638,0.943-1.1c0.684-0.541,1.045-0.872,1.178-1.809c0.087-0.607-0.189-1.324,0.237-1.811
			c-0.245-0.672-1.204-1.194-1.276-1.833c-0.068-0.608,0.328-0.769,0.336-0.998C257.451,411.691,256.74,409.878,256.309,409.267z"/>
	</g>
</a>
</svg>
