<?xml version="1.0" encoding="utf-8"?>
<!-- Generator: Adobe Illustrator 16.0.3, SVG Export Plug-In . SVG Version: 6.00 Build 0)  -->
<!DOCTYPE svg PUBLIC "-//W3C//DTD SVG 1.1//EN" "http://www.w3.org/Graphics/SVG/1.1/DTD/svg11.dtd">
<svg version="1.1"
	 id="Chile_1_" xmlns:inkscape="http://www.inkscape.org/namespaces/inkscape" xmlns:sodipodi="http://sodipodi.sourceforge.net/DTD/sodipodi-0.dtd"
	 xmlns="http://www.w3.org/2000/svg" xmlns:xlink="http://www.w3.org/1999/xlink" x="0px" y="0px" viewBox="244.482 655.247 108.604 103.278"
	 xml:space="preserve">
<a xlink:href="/regions/XII" >
	<g id="XII" fill="grey">
		<path d="M352.616,747.6c-0.094,0.553-0.511,0.906-1.022,1.099c-0.064-0.099-0.09-0.14-0.156-0.238
			c-0.666,0.339-0.546-0.943,0-1.217c0.701-0.348,1.058-0.62,1.649,0.116C352.929,747.441,352.773,747.521,352.616,747.6z"/>
		<path d="M347.195,758.129c-0.589-0.386-0.248-1.418,0.475-1.261c0.029,0.137-0.017,0.228-0.156,0.235
			c0.002,0.42,0.158,0.832,0.393,1.178C347.63,758.534,347.381,758.467,347.195,758.129z"/>
		<path d="M347.037,748.462c0.463-0.564,2.175-0.815,1.964,0.158l0.238,0.155c-0.165,1.094-1.325,0.836-2.12,0.785
			C347.003,749.216,346.869,748.886,347.037,748.462z"/>
		<path d="M346.959,744.458c1.309,0.49,1.725,0.299,2.278,1.727c-0.884-0.09-1.79-0.965-2.671-1.26
			c0.018-0.07-0.008-0.121-0.078-0.154C346.562,744.543,346.725,744.429,346.959,744.458z"/>
		<path d="M346.251,756.792c-0.229-0.408,0.075-0.647,0.551-0.628c0.082,0.345-0.07,0.442-0.393,0.312
			C346.456,756.637,346.408,756.746,346.251,756.792z"/>
		<path d="M345.231,757.735c-0.13-0.378-0.409-0.468-0.785-0.313c0.456-0.8,2.009-0.298,1.885,0.471
			c0.082,0.029,0.148,0.049,0.235,0.082l-0.156,0.311C345.987,758.176,345.581,757.988,345.231,757.735z"/>
		<path d="M343.424,756.083c-0.358,0.018-0.626-0.147-0.707-0.473l0.314-0.082v-0.704
			c0.519-0.086,1.007,0.191,1.179,0.704c0.559-0.733-1.08-1.935,0.471-2.044c0,0.082,0,0.158,0,0.238h-0.078
			c0.154,0.341,0.266,0.572,0.472,0.939c-0.508,0.541-0.186,1.111,0.632,0.866c0.047,0.575,0.454,1.093-0.549,1.179
			c-0.026-0.422-0.243-0.638-0.629-0.704C344.23,756.591,343.956,756.146,343.424,756.083z"/>
		<path d="M341.46,753.333c-0.216-0.299-0.272-0.632-0.078-0.865v-0.082c0.77,0.074,0.991,0.826,1.097,1.42
			c-0.504,0.084-0.802,0.492-1.336,0.628C341.006,753.916,341.372,753.852,341.46,753.333z"/>
		<path d="M340.753,757.343c0.694,0.042,1.687-0.092,2.277,0.312c0.085-0.083,0.139-0.192,0.157-0.312
			c-0.097-0.017-0.161-0.065-0.157-0.158c0.306-0.084,0.563-0.022,0.707,0.237c-0.08,0.113-0.193,0.209-0.314,0.236l0.157,0.393
			c-0.441-0.008-0.791,0.25-1.099,0.475c-0.006-0.258-0.085-0.508-0.237-0.707c-0.175,0.113-0.276,0.278-0.313,0.471
			c-0.11-0.143-0.19-0.304-0.234-0.471c-0.403,0.353-0.856,0.285-1.337,0.236C340.25,757.707,340.391,757.453,340.753,757.343z"/>
		<path d="M335.255,745.167c-0.502,0.243-0.935,0.19-1.217-0.278c-0.551-0.916,0.539-0.604,1.138-0.747
			c0.029-0.084,0.051-0.147,0.079-0.234c1.152-0.069,3.104-0.521,4.209-0.079c0.91,0.364,2.428-0.159,3.503-0.159
			c1.839,0,4.451,1.42,3.718,3.576c-0.359,1.055-1.293,2.438-2.562,2.117c-1.62-0.409-0.169-1.033-0.934-1.765
			c-0.311-0.292-1.297-0.131-1.571,0.157c-0.247,0.262-0.049,0.822-0.236,1.021c-0.305,0.31-1.86,0.309-2.356,0
			c0.444-0.225,0.9-0.155,1.415-0.155c-0.496-0.503-1.296-0.331-1.729-0.943c-0.049,0.143,0.014,0.25-0.078,0.393
			c-0.06-0.043-0.186-0.107-0.24-0.154c-0.335,1.47-2.593,0.54-1.724,0c-0.444-0.261-0.685-0.706-0.867-1.179
			c0.029-0.21,0.114-0.436,0.234-0.631C335.813,745.661,335.93,744.765,335.255,745.167z"/>
		<polygon points="329.914,734.17 330.385,738.25 329.6,731.496 		"/>
		<path d="M329.363,750.819c-0.026-0.349,0.011-0.856,0.314-1.179c-0.066-0.097-0.093-0.137-0.157-0.234
			c0.232-0.308,0.377-0.533,0.55-0.866h-0.235l0.164-0.376c0.594,0.156,1.768,0.278,2.349,0.298c0.507,0.017,1.119-0.438,1.61-0.273
			c0.423,0.142,0.798,0.517,1.294,0.666c-0.184,0.001-0.371,0.027-0.547,0.081c0.41,0.16,0.814,0.312,1.257,0.312
			c0.062,0.768-1.795,0.491-2.436,0.633c-0.339,0.073-0.685,0.592-1.416,0.311c-0.474-0.18-0.646-1.303-1.333-0.393
			c0.193-0.115,0.406-0.169,0.629-0.158c0.066,0.151,0.092,0.311,0.078,0.475c0.228,0.243,0.662,0.537,1.179,0.393
			c-0.18,0.115-0.296,0.278-0.312,0.474c1.054-0.39,2.478-1.049,2.749,0.474c0.328-0.605,1.81-0.237,1.726,0.472
			c-0.049,0.124-0.127,0.231-0.235,0.314c0.385,0.164,0.754,0.05,1.179,0.078c-0.622,0.811,0.189,1.87,1.099,1.808
			c-0.247,0.322-0.409,0.701-0.551,1.1c0.253-0.124,0.443-0.107,0.473,0.156c-1.252,1.066-1.509,0.092-1.726-1.1
			c-0.358,0.18-1.677,0.836-1.14-0.234c0.536-1.069-0.758-0.695-0.98-1.493c-0.69,0.803-2.029,0.568-2.045-0.629
			c-0.079,0-0.155,0-0.235,0c0.03,0.139-0.017,0.23-0.158,0.236c0.047-0.226-0.017-0.377-0.234-0.393
			c0.013,0.274,0.092,0.541,0.234,0.785c-0.454-0.098-0.764,0.156-1.137,0.156c-0.241,0-0.587-0.479-0.828-0.629
			c0.21,0.161,0.325,0.376,0.313,0.629h-0.234c0.131,0.133,0.261,0.263,0.393,0.393c-0.65,0.525-1.375,0.183-1.729-0.471
			c-0.658-1.214,0.541-0.934,1.649-1.179c-0.62-0.153-0.8-0.444-0.153-0.785c-0.66,0.231-1.263,0.623-1.885,0.94
			C328.786,751.261,328.994,750.946,329.363,750.819z"/>
		<path d="M320.722,751.451c0.62,0.115,1.426,0.055,1.729,0.704c-0.235-0.089-0.481-0.123-0.705-0.08
			c0.119,0.114,0.251,0.216,0.393,0.311c-0.37,0.237-0.809,0.188-1.259,0.158C321.155,752.197,321.115,751.804,320.722,751.451z"/>
		<path d="M318.916,744.692c0.655-0.427,1.235,0.399,1.335,1.021c0.052-0.151,0.161-0.261,0.314-0.311
			c0.076,0.081,0.152,0.157,0.236,0.236c0.05-0.051,0.104-0.104,0.156-0.156c-0.083-0.173-0.218-0.31-0.393-0.394
			c0.114-0.112,0.257-0.103,0.393,0c-0.314-0.351-1.3-0.417-0.475-0.785c0.607-0.269,2.657,0.02,2.046,1.021
			c0.478,0.194,0.639-0.617,1.257-0.704c0.36-0.05,2.063,0.502,2.356,0.704c-0.533,0.409-1.275,0.219-1.886,0.082
			c0.14,0.105,0.245,0.239,0.314,0.393c-0.536,0.178-1.056,0.56-1.492,0l-0.155,0.08c0.215,0.527-2.399,1.279-2.987,0.867
			c-0.21,0.304-0.546,0.433-0.94,0.393c-0.02-0.139,0.035-0.244,0.155-0.314c-0.183-0.442-0.369-0.57-0.628-0.941
			c0.311-0.172,0.66-0.223,1.021-0.158v-0.149C318.927,745.586,318.288,745.146,318.916,744.692z"/>
		<path d="M318.287,749.095c-0.218-0.263-0.072-0.543,0.236-0.785c0.508,0.441,0.082-0.366,0.393-0.551
			c0.424-0.253,1.13-0.528,1.617-0.559c0.258-0.017,1.525-0.397,1.684-0.309c0.37,0.213,0.409,1.386,0.314,1.729
			c0.6-0.323,0.139-1.207,0.078-1.809c0.445-0.104,1.362-0.683,0.943,0l0.235,0.157c0.275-0.276,0.604-0.296,0.943-0.081
			c-0.097-0.278-0.327-0.464-0.629-0.548c0.852-0.692,1.178-0.263,1.964-0.155c-0.074-0.145-0.176-0.242-0.314-0.312
			c0.435-0.04,1.069,0.131,1.415,0.08c0.38-0.055,0.428-0.311,0.919-0.355c1.01-0.091,1.326-0.323,2.223-0.668
			c0.558-0.213,1.212-0.07,1.689-0.393c0.659-0.441,1.905,0.345,2.2,0.943c0.423,0.856-0.148,1.473-0.824,0.628
			c0.304,1.358-0.85,0.917-1.571,0.475c-0.261,0.616,1.102,1.346-0.708,1.178c-1.269-0.116-2.823-0.853-3.771-1.57
			c-0.027,0.214-0.002,0.426,0.08,0.629c0.479-0.148,2.069,1.123,2.602,1.352c-0.18,0.469-1.403,1.743-1.815,1.674
			c-0.736-0.122-1.298-0.964-1.26-1.686c-0.486,0.549,0.058,0.986,0.314,1.489c-1.071,0.192-1.479-0.986-1.493-1.724
			c-0.539,0.307-1.206,0.573-1.884,0.703c0.486-0.122,1.021-0.186,1.491,0c-0.011,0.258,0.119,0.599,0.314,0.867
			c-0.353-0.107-1.915,0.278-2.044,0.394c0.344,0.207,0.475,0.537,0.393,0.938c0.267-0.508,0.701-0.488,0.941,0
			c0.293,0.041,0.526,0.038,0.786,0c-0.079,0.114-0.193,0.209-0.314,0.239v0.153c0.187,0.042,0.193,0.159,0.082,0.314
			c0.242-0.027,0.479-0.003,0.703,0.078c-0.18,0.268-0.35,0.605-0.471,0.943c0.583-0.025,0.906-0.016,1.571,0.082
			c-0.125,0.146-0.23,0.304-0.314,0.473c0.278,0.127,0.366,0.338,0.238,0.629c-0.206-0.18-0.582-0.629-0.826-0.629
			c-0.441,0-0.351,0.541-0.825,0.236c-0.496-0.318-0.08-1.021-0.63-1.336c-0.119,0.561,0.121,1.114-0.156,1.652
			c-0.444-0.244-0.348-0.851-0.549-1.336c-1.255,0.349-0.278-0.604,0.393-0.785c-0.264-0.017-0.641-0.017-0.865,0
			c0.081-0.08,0.157-0.156,0.236-0.235c-0.551,0.2-0.798,0.65-1.571,0.472c0.08-0.081,0.156-0.158,0.235-0.236
			c-0.414-0.282-1.268-0.734-1.883-0.473l0.079-0.238c0.699-0.01,1.225-0.502,1.964-0.472c-0.201-0.038-1.689-0.216-0.826-0.509
			c0.395-0.134,1.98-1.053,0.826-0.983c-0.16,0.011-0.976,0.71-1.097,0.785c-0.496,0.305-1.005,0.642-1.808,0.707v-0.314
			c-0.218,0.005-0.439-0.048-0.631-0.152c0.37,0.021,0.673-0.109,0.867-0.394c-0.261,0.083-0.534,0.086-0.785,0
			c0.138-0.219,0.368-0.385,0.629-0.474C319.417,748.872,318.836,749.117,318.287,749.095z"/>
		<path d="M317.816,751.059c0.328-0.19,0.608-0.129,0.864,0.153c0.138-0.196,0.323-0.332,0.551-0.393
			c-0.082,0.441-0.186,0.984-0.314,1.417c-0.158-0.212-0.312-0.418-0.472-0.632h0.079v-0.078h0.081
			c-0.341-0.136-0.534-0.24-0.867-0.474L317.816,751.059L317.816,751.059z"/>
		<path d="M311.296,734.562l0.157-0.475c0.47,0.078,0.746,0.43,1.179,0.547c0.338,0.093,0.594-0.191,0.941-0.08
			c0.213,0.074,0.838,0.474,0.746,0.744C313.931,736.474,311.666,735.449,311.296,734.562z"/>
		<path d="M310.824,745.479c-0.441-0.354,2.361-1.716,3.221-0.551c-0.475,0.315-1.824,0.676-2.436,0.707
			c-0.506,0.024-0.391-0.688-0.706-0.156H310.824L310.824,745.479z"/>
		<path d="M307.055,731.42c-0.129-0.271-0.062-0.412,0.234-0.393c-0.156-0.238-0.313-0.475-0.471-0.707
			c0.294-0.188,0.603-0.568,0.901-0.669c0.494-0.169,1.288,0.221,1.848,0.197c0.146-1.011-1.459-0.812-1.023-1.885
			c-0.513-0.521,0.062-0.568,0.314-1.022c0.082-0.149,0.35-0.104,0.431-0.353c0.097-0.291,0.034-1.016,0.278-1.219
			c1.067-0.89,0.802,1.179,0.901,1.695c0.193,0.955,0.559,1.859,0.876,2.782c0.174,0.503,0.382,0.574,0.655,1.021
			c0.507,0.827,0.839,1.877-0.604,1.396c-0.842-0.278-1.391-1.348-2.225-1.32c0.077,0.983,1.691,1.588,1.332,2.514
			c0.881,0.463,0.127,1.396,0.943,1.727c-1.238,0.267-2.349-0.686-3.3-1.334l0.157-0.236
			C307.492,732.92,307.391,732.403,307.055,731.42z"/>
		<path d="M308.939,747.207c-0.245-0.035-0.462-0.143-0.628-0.314c0.301-0.436,1.046-0.354,1.492-0.627
			c-0.29,0.586,0.186,0.622,0.628,0.627c-0.017-0.216-0.072-0.431-0.156-0.627l0.08-0.081c0.282,0.183,0.562,0.337,0.864,0.474
			c0.452-0.064,0.937,0.037,1.414-0.08v-0.082c-1.485-0.229,1.665-1.711,2.278-1.021c-0.812,0.376-1.935,0.43-1.808,1.491
			c-0.25-0.14-0.524-0.174-0.785-0.082l0.078,0.24c-0.433,0.058-0.882-0.015-1.257-0.24c-0.354,1.228,1.847,0.305,2.348,0.475
			c-0.08,0.03-0.145,0.051-0.229,0.08c0.834,0.629,1.811-0.588,2.277,0.082c-0.189,0.133-0.361,0.254-0.549,0.393l0.08,0.153
			c0.347-0.082,0.573,0.104,0.706,0.475c-0.715,0.611-0.826-0.311-1.491-0.475l0.236,0.475c-0.191-0.06-0.373-0.063-0.551,0
			c0.199,0.432,0.581,0.599,0.943,0.785c-0.441,0.046-0.895,0.37-1.1,0.785c0.082-0.458-0.095-0.737-0.549-0.785
			c0.114,0.29,0.311,0.671,0.081,0.943c-0.441-0.509-0.434-1.281,0.079-1.652c-0.541-0.128-0.674-0.973-1.099-0.631
			c0.137-0.019,0.243,0.035,0.312,0.157c-0.17,0.082-0.358,0.106-0.549,0.08c0.002,0.354-0.154,0.604-0.473,0.628l0.08,0.158
			c-0.218-0.016-0.412-0.129-0.549-0.312c0.181-0.213,0.207-0.457,0.078-0.708c-0.244,0.069-0.454,0.181-0.628,0.315
			c0.024,0.18-0.058,0.26-0.236,0.235c-0.344-0.66-0.423-0.225-0.785-0.04c-0.291,0.147-0.776-0.441-1.1-0.511
			c0.016-0.417,0.286-0.739,0.785-0.786L308.939,747.207L308.939,747.207z"/>
		<path d="M303.991,746.188l-0.236-0.156l0.471-0.393c-0.238-0.429-0.003-0.543,0.393-0.55
			c0.763,0.377,1.939-0.398,2.122,0.313c0.534,0.277,1.03,0.148,1.492-0.156c0.051,0.301,0.213,0.388,0.472,0.236
			c-0.154,0.449-0.049,0.718,0.473,0.627c-0.283,0.295-0.634,0.316-0.941,0.083c-0.253,0.704-0.742,0.36-1.336,0.393
			c0.009-0.278,0.187-0.443,0.473-0.476c-0.32-0.311-0.739-0.11-1.097,0.083c-0.027-0.186-0.054-0.37-0.082-0.551
			c-0.227,0.002-0.477,0.002-0.704,0c0.045,0.206-0.023,0.328-0.236,0.312c0.169,0.406,0.102,0.83-0.237,1.098
			c-0.096-0.079-0.153-0.191-0.155-0.312h0.079c0.114-0.224,0.121-0.435-0.079-0.546c-0.112,0.244-0.242,0.479-0.393,0.703
			C304.333,746.645,304.172,746.402,303.991,746.188z"/>
		<path d="M299.827,732.205c0.196-0.172,0.438-0.277,0.707-0.313c0.227,0.802,0.71,0.839,0.703,0
			c0.601-0.003,0.551,1.331,1.179,1.728c0.147-0.464,0.049-0.948-0.236-1.335c0.951-0.255,1.927,1.069,1.336,1.886
			c0.755-0.085,0.519,0.966,1.021,1.02c-0.287-0.428-0.167-1.209,0.236-1.413c-0.043,0.228-0.142,1.146,0.235,1.021
			c0.28-0.095-0.181-1.093,0.157-1.334c1.335-0.966,0.905,1.639,0.867,1.964c0.195-0.126,0.377-0.392,0.472-0.63
			c0.139,0.473,0.402,0.927-0.078,1.097v0.082c0.194,0.045,0.349,0.147,0.471,0.311c-0.137,0.301-0.385,0.469-0.707,0.475
			c0.69,0.794-0.376,0.312-0.864,0.158c0.235,0.544,0.747,0.285,0.786,0.864h-0.079c0.012,0.148-0.017,0.274-0.081,0.393
			c-0.476,0.06-0.717-0.322-0.786-0.785c-0.033,0.24-0.092,0.503-0.157,0.706c-0.493-0.382-1.67-0.646-1.571-1.178
			c0.344,0.114,0.547-0.017,0.707-0.314c0.064,0.072,0.145,0.123,0.236,0.156c0.082-0.058,0.103-0.138,0.081-0.234
			c-0.248-0.176-0.09-0.369,0.153-0.551c-0.077-0.08-0.153-0.156-0.234-0.235c-0.172,0.136-0.255,0.328-0.236,0.546
			c-0.12,0.032-0.235,0.123-0.314,0.24c-0.278-0.221-0.44-0.531-0.472-0.867c-0.065,1.542-2.026-0.29-0.471-0.704
			c-0.356,0.052-0.615,0.003-0.474-0.393h0.081l-0.157-0.158c-0.178,0.344-0.474,0.481-0.867,0.473
			c0.421,0.479,0.252,0.934-0.078,1.26c0.006,0.237,0.032,0.475,0.078,0.704c-0.703-0.143-0.785-0.817-0.311-1.258
			c-0.44,0.11-0.591,0.441-0.551,0.865c-0.494-0.114-1.134-0.867-0.864-1.416c0.212-0.425,1.189-0.831,0.393-0.94
			C299.999,733.428,299.474,732.882,299.827,732.205z"/>
		<path d="M330.385,738.25c-0.259-2.25-0.52-4.501-0.785-6.754L330.385,738.25z M328.343,720.657l-0.629-5.419
			C327.919,717.042,328.13,718.85,328.343,720.657z M298.178,741.475l-0.473,0.393c-0.049-0.238,0.002-0.457,0.158-0.631
			c-0.241-0.123-0.377-0.279-0.316-0.475c0.203,0.161,0.425,0.199,0.631,0.082c-0.323-0.148-0.567-0.389-0.705-0.704
			c0.254-0.131,0.5-0.116,0.784,0c0.398,0.234,0.595,0.563,0.827,1.021c0.087,0.174,1.575,0.39,1.849,0.394
			c-0.362-0.179-0.686-0.504-0.867-0.867c0.64,0.012,0.985,0.562,1.653,0.393c-0.759-0.311-1.121-0.971-1.653-1.099
			c-0.339-0.081-1.117,0.605-1.178-0.235h0.154c0.003-0.17-0.084-0.304-0.236-0.395c0.517-0.091,0.755-0.67,1.336-0.161
			c-0.09,0.055-0.149,0.138-0.156,0.237c0.8,0.195,1.03,1.09,1.884,1.099l-0.08-0.313h0.707c-0.172-0.572-1.864-0.389-1.261-1.328
			c0.213,0.295,0.475,0.53,0.785,0.704c0.16-0.248,0.104-0.476-0.156-0.634c0.356,0.236,0.856,0.383,1.338,0.317
			c0.172,0.509,0.561,0.118,0.787-0.236c-0.385-0.049-0.761-0.152-1.1-0.312h0.08c0.052-0.102,0.075-0.193,0.078-0.316l0.158,0.082
			c0.943-1.007,2.544,1.293,3.225,1.645c-0.264-0.36-0.548-0.688-0.707-1.101c0.573-0.134,1.3-0.01,1.808,0.312
			c0-0.836,0.291-1.048-0.158-1.964c0.553-0.052,1.727-1.025,2.046-0.082c0.336,0.042,0.613-0.089,0.707-0.393
			c0.202,0.052,0.428,0.112,0.632,0.155c-0.396,0.75-1.096,1.282-0.743,1.97c0.385,0.755-0.802,1.366-0.195,2.12
			c0.049-0.206,0.109-0.475,0.158-0.706c0.271,0.394,0.704,0.649,1.18,0.631c-0.716-0.56-1.073-1.192-0.784-2.121
			c0.123-0.394,0.728-1.582,1.022-0.786h0.082c0.295,0.266,0.864,0.664,1.256,0.867c0.661,0.345,1.465,1.104,2.121,1.334
			l0.079-0.393c-0.392-0.113-0.663-0.388-0.785-0.785c0.609,0.241,1.135,0.662,1.809,0.628c-0.953-0.634-1.958-1-3.042-1.379
			c-0.343-0.116-1.13-1.119-1.085-1.253c0.33-0.983-1.657-1.226-2.185-1.133c-1.176,0.196-1.751,0.059-2.018-1.185
			c0.223,0.113,0.462,0.191,0.707,0.237c-0.457-0.388-1.097-0.537-1.26-1.18c1.753,0.795,3.486,1.632,5.29,2.308
			c0.55,0.207,1.25,0.704,1.781,0.8c0.648,0.111,0.839,0.845,1.494,0.979c-0.34-0.572,0.46-0.803,0.473-0.785
			c-0.216-0.376-0.698-0.071-0.94-0.316c-0.621-0.63-0.102-0.511,0.196-1.097c0.763-1.494,1.484,0.471,1.85,0.941l-0.079,0.474
			c0.961-0.574,0.982,1.199,1.099,1.731c0.139-0.037,0.229-0.163,0.238-0.317c0.506-0.469,0.911,0.181,0.631,0.786
			c0.373,0.246,0.259,0.233,0.471,0c-0.084,0.095,0.017-0.903,0.04-0.864c-0.134-0.257-0.307-0.464-0.549-0.626
			c-0.511-0.341-0.148-0.663-0.435-0.941c-0.218-0.217-1.118-1.082-0.632-1.419c0.884-0.61,2.152,1.223,2.437,1.37
			c0.519,0.277,0.936,1.192,1.102,0.437c0.07-0.312-0.899-0.679-0.311-1.099c0.408-0.296,1.43,0.477,1.752,0.638
			c1.051,0.525,1.721,0.439,1.31,1.401c-0.274,0.638-0.853,1.549-1.258,2.113c0.187,0.341,0.345,0.589,0.549,0.867
			c-0.206-1.028,0.798-3.501,1.808-1.724c0.118-0.575-0.158-1.227-0.158-1.808c0-0.539,1.418,0.072,1.653,0
			c0.1-0.607-0.375-0.789-0.956-1.038c-0.37-0.158-0.795-0.056-1.163-0.22c-0.45-0.199-0.744-0.638-1.241-0.802
			c-1.983-0.662-3.372-1.195-5.393-1.715c-0.497-0.125-1.8-0.605-2.133-0.88c-0.729-0.605-0.572-1.915-1.33-2.415
			c-0.377-0.251-0.827-1.692-0.827-2.165c0-0.924,1.201-1.585,1.964-2.076c0.647-0.417,1.367-0.391,2.055-0.824
			c0.859-0.54,2.908-1.307,3.446-2.161c0.302-0.48,0.149-1.681-0.118-2.197c-0.428-0.826-2.252-0.257-2.95-0.203
			c-2.007,0.158-3.176,0.987-4.553,1.932c-0.566,0.389-0.848,0.754-1.571,0.393c-0.286-0.147-0.484-0.567-0.705-0.788
			c-0.245-0.245-0.618-0.043-0.865-0.24c-0.826-0.663-1.369-2.456-0.786-3.377c-0.644-1.653-0.194-2.037,0.628-3.292
			c-0.655,1.902,1.795,1.576,2.278,0.153c0.637-1.867-1.2-1.13-1.967-1.021c0.933-1.906-0.84-1.194-1.571-1.719
			c0.366-0.578,2.177-1.129,2.826-0.941c1.094,0.317,1.664,2.684,2.865,0.891c0.438-0.653,1.272-0.54,1.771-1.358
			c0.048-0.081,0.614-1.085,0.629-1.178c0.07-0.475-0.365-0.77-0.312-1.179c0.07-0.572,1.057-1.726,1.649-1.729
			c0.425-0.004,1.324,1.204,1.574,1.489c0.819,0.937,1.611,2.271,2.902,1.298c0.621-0.466,2.2-0.797,2.127-1.771
			c0.793-0.297,2.023,0.987,2.088,1.66c0.154,1.62,0.309,3.242,0.505,4.861c0.291,2.394,0.561,4.79,0.839,7.185
			c0.819,7.005,1.641,14.011,2.46,21.018l-0.156-1.021v1.571c-0.768-0.345-2.425-1.976-3.143-1.261
			c0.905,0.09,1.641,0.966,2.438,1.416c-0.787,1.072-3.308,1.16-4.477,0.749c-1.417-0.494-2.88-0.677-4.239-1.222
			c-0.672,0.127-0.432-0.377-0.472-0.704c0.013,0.099,0.305-0.109,0.312-0.238c0.021-0.289-0.131-0.715-0.158-1.021
			c-0.117,0.38-0.18,0.822-0.393,1.183c-0.229-0.366-0.233-0.796-0.47-1.102c-0.026,0.177,0.484,1.731-0.002,1.731
			c-0.555,0-0.233-0.94-0.55-1.335c-0.361,0.527,0.277,2.405-1.256,1.567c-0.785-0.431-0.479-1.357-0.71-1.966
			c-0.372,0.77,0.516,1.737,0.236,2.277c-0.69,1.338-1.142-0.193-1.179-0.71c-0.133,0.151-0.187,0.348-0.157,0.554l-0.312-0.156
			c0.285,0.847-0.959,1.254-1.49,0.705c-0.635-0.648,0.318-1.489,0.474-2.2l-0.236-0.082c-0.175,0.911-1.067,1.191-0.705,2.283
			c-0.166,0.04-0.285,0-0.315-0.158c-0.635-0.199-1.635-0.578-2.277-0.473c-0.113,0.616-1.895,1.502-2.161,0.473
			c-0.16-0.613,0.837-0.683,1.194-0.844c1.023-0.466,1.499-1.072,2.145-1.979c-0.661-0.562-1.201,0.252-1.652,0.704
			c0.182,0.082,0.365,0.158,0.549,0.239c-0.744,0.671-2.271,1.341-3.299,1.101c-0.027-0.955,0.861-0.565,1.412-1.025
			c-0.568-0.074-1.509-0.1-1.806,0.24c-0.104,0.115,0.254,1.26-0.63,1.414c-0.205-0.573,0.312-0.604,0.312-1.062
			c0-0.655-0.12-0.801,0.234-1.456c-0.414,0.271-0.844,0.017-1.18-0.235c0.571,0.614,0.248,1.354-0.312,0.628
			c-0.019,0.303-0.325,1.487-0.827,0.982c-0.408-0.409-0.83,0.162-1.061-0.511c0.408-0.037,0.856-0.063,1.023-0.472
			c-0.5,0.016-0.82-0.312-0.867-0.79c0.097-0.223,0.169-0.411,0.238-0.627c-0.233,0.09-0.411,0.247-0.548,0.474
			c-0.198-0.326-0.417-0.572-0.707-0.393c0.069,0.231,0.206,0.427,0.395,0.549c-0.248,0.035-0.457,0.01-0.707-0.081
			c0.05,0.357,0.409,0.572,0.785,0.705c-0.175,0.107-0.328,0.069-0.473-0.082c-0.029,0.245-0.167,0.511-0.239,0.784
			c-0.086-0.066-0.209-0.147-0.314-0.238c-0.029,0.208-0.119,0.356-0.314,0.395c0.243,1.018-0.635-0.196-0.237-0.945
			c-0.33,0.175-0.461,0.528-0.395,0.942c-0.121-0.126-0.23-0.071-0.314,0.081c-0.158-0.341-0.118-0.734,0.08-1.099
			c-0.112-0.01-0.17,0.049-0.158,0.161c-0.1-0.009-0.181-0.067-0.237-0.161c-0.077,0.433-0.24,0.74-0.235,1.103
			c-0.521,0.121-0.621-0.36-0.242-0.786c-0.345,0.181-0.674,0.181-1.021,0l0.156,0.312c-0.19,0.174-0.441,0.219-0.707,0.157
			c0.412,0.774-1.355,0.866-1.648,0.074c0.235-0.187,0.508-0.212,0.786-0.077c-0.155-0.221-0.131-0.449,0.001-0.708
			c-0.209,0.096-0.438,0.103-0.631,0l0.156-0.237h-0.156v-0.004h-0.003v-0.002h-0.01v0.005h-0.011V741.475z"/>
		<path d="M296.921,743.045c0.646-0.736,1.203,0.195,1.651,0.704l0.154-0.078c0.573,0.736-0.627,1.225-0.627,0.629
			c0-0.444-0.758-1.781-0.705-0.865C297.123,743.464,296.965,743.319,296.921,743.045z"/>
		<path d="M293.857,732.281c0.856-0.04,1.184,0.203,1.649,0.786c0.247-0.233,0.159-0.416-0.156-0.549
			c0.183-0.016,0.33,0.036,0.474,0.156c-0.031-0.48,0.173-0.771,0.078-1.179c0.189-0.02,0.377,0.007,0.551,0.079
			c-0.106-0.177-0.271-0.312-0.473-0.394c1.03-0.769,1.915,0.614,1.727,1.493c0.317-0.312,0.305-0.866,0.474-1.259l0.236,0.155
			v-0.155c0.402,0.011,0.792,0.146,1.098,0.393c-0.391,0.497-0.667,0.905-1.178,1.179c0.309,0.103,0.616-0.045,0.865-0.312
			c0.303,0.5,0.007,0.917-0.473,1.098c0.376-0.037,0.479,0.131,0.312,0.474c0.269-0.049,0.521-0.121,0.785-0.237
			c0.356,0.7-0.651,1.921-1.379,1.124c-0.594-0.652-1.067-1.326-1.526-1.909c-0.77,1.617,2.928,2.667,2.356,3.771
			c-0.23-0.049-0.524-0.109-0.785-0.156c0.119,0.258,0.032,0.449-0.236,0.549c0.147,0.079,0.306,0.131,0.473,0.156
			c-0.045,0.118-0.124,0.213-0.236,0.236c0.04,0.142,0.159,0.255,0.313,0.312c-0.503,0.021-1.062,0.007-1.57-0.08
			c0.24-0.484,0.17-1.023,0.549-1.416c-0.541-0.571-1.507-0.35-2.2-0.94c0.237-0.058,0.444-0.161,0.629-0.312
			c-0.247-0.11-0.526-0.106-0.785,0c0.081-0.36,0.335-0.484,0.705-0.393c-0.393-0.109-0.629-0.384-0.705-0.786
			c-0.196,0.193-0.451,0.818-0.707,0.786c-0.685-0.084-0.502-1.206-0.394-1.571c-0.441-0.106-0.67-0.497-0.785-0.941
			L293.857,732.281z"/>
		<path d="M291.894,738.959h0.393l-0.081-0.236c0.267,0.035,0.537,0.011,0.785-0.082l-0.156-0.311
			c0.052-0.053,0.105-0.108,0.156-0.157c0.489,0.342,1.316,0.16,1.26,0.864c-0.25-0.105-0.517-0.157-0.785-0.153
			c0.16,0.079,0.266,0.213,0.311,0.394c-0.254,0.113-0.455,0.065-0.549-0.156c-0.234,0.286-0.314,0.688-0.393,1.021
			C292.488,739.808,292.197,739.361,291.894,738.959z"/>
		<path d="M292.05,737.153l0.082-0.234l-0.394-0.158c0.475-0.374,1.586-0.596,1.65-1.098
			c-0.219-0.059-0.408-0.012-0.548,0.155v-0.313c0.311-0.049,0.601-0.156,0.866-0.312c-0.363,0.079-0.732,0.023-1.022-0.156
			c0.54-0.769,1.28-0.354,1.571,0.312c0.223,0.011,0.375,0.114,0.393,0.312c-0.132,0-0.262,0-0.393,0
			c0.146,0.448,0.17,0.901-0.314,0.785c0.291,1.506-0.32,0.314-0.864,0.588c-0.449,0.223-0.399,0.774-1.1,0.353v-0.154h0.082v-0.08
			L292.05,737.153L292.05,737.153z"/>
		<path d="M282.623,735.894c-0.213,0.027-0.426,0.002-0.627-0.078c0.324-0.168,0.557-0.765,0.785-0.866
			c0.621-0.27,1.45-0.055,1.415,0.63c0.224-0.066,0.409-0.203,0.549-0.394c0.145,0.213,0.194,0.448,0.156,0.704
			c0.104,0.026,0.213,0.053,0.314,0.082c-0.181,0.376-0.583,0.354-0.942,0.236l0.079,0.156
			C283.225,736.644,283.65,735.06,282.623,735.894z"/>
		<path d="M281.76,722.146c-0.252-0.122-0.443-0.264-0.628-0.471c0.642,0.187,1.507,0.662,2.12,0.197
			c0.609-0.465,1.182-0.315,1.726-0.197c0.612,0.133,2.246,0.56,1.81,1.49c0.05,0.051,0.105,0.104,0.154,0.153
			c0.123-0.035,0.203-0.114,0.238-0.234l0.154,0.154l0.082-0.078c-0.052-0.104-0.104-0.211-0.158-0.314
			c0.096-0.14,0.18-0.303,0.236-0.472c-0.468-0.17-0.938-0.447-1.256-0.865c0.26-0.091,0.533-0.057,0.785,0.08
			c-0.84-0.636-0.195-0.887,0.627-0.549c-0.314-0.148-0.57-0.39-0.703-0.706c-0.072,0.051-0.15,0.082-0.238,0.082v0.153
			c-0.48-0.106-0.842,0.202-1.021,0.632c-1.572-0.648-0.437-0.915-0.628-1.964c-0.522,0.548-0.688-0.365-0.786-0.941
			c-0.051-0.312-0.497-1.942-0.629-1.811c0.326-0.327,0.965-0.666,1.359-0.886c0.344-0.187,1.067-1.231,1.154-1.231
			c1.93,0-0.155,1.838,0.156,2.437c0.297-0.475,0.791-1.269,1.334-1.178c-0.17,0.138-0.253,0.331-0.234,0.549
			c1.178-0.54,0.718-0.573,1.649,0.156c0.006-0.388-0.082-0.936,0.236-1.26c0.251-0.253,0.605-0.377,0.866-0.63
			c0.154-0.148,0.038-0.489,0.156-0.631c0.214-0.255,0.605-0.184,0.863-0.393c0.322-0.261-0.492-0.487,0.467-0.605
			c0.519-0.064,0.763-0.078,1.104,0.293c-0.049-1.652,1.1,0.171,1.824,0.066c0.522-0.075,1.81-0.008,2.183-0.377
			c0.443-0.441,0.832-0.797,1.489-0.784c-1.485-1.991-3.989-0.942-6.048-0.942c-0.832,0-1.685-0.259-2.593-0.04
			c-0.624,0.15-0.64,1.266-1.179,1.687c0.064-0.072,0.145-0.125,0.236-0.155c0.034,0.069,0.086,0.095,0.156,0.081
			c-0.021,1.106-1.08,0.009-1.57-0.235c0.159-0.966,0.752-0.533,1.1-0.943c0.211-0.249,0.295-0.836-0.158-0.391
			c-0.16,0.157-0.738,0.31-0.943,0.391c-0.41,0.172-0.33,0.683-1.02,0.237v-0.157c-0.508-0.019-0.977,0.441-1.493,0.393
			c-0.31-0.029-0.37-0.465-0.864-0.548c0.005,0.112,0.026,0.218,0.062,0.32l-0.299,0.072c-0.256-0.325-0.38-0.68-0.314-1.098
			c0.64-0.393,1.407-0.911,2.188-0.843c0.606,0.053,1.364,0.7,1.74,0.136c-0.096-0.031-1.915-0.252-1.256-0.588
			c0.56-0.285,1.017-1.137,1.049-1.716c0.082-1.471-0.278-1.626-1.369-2.653c-0.789-0.743-0.928-1.014-1.329-2.037
			c0.08-0.105,0.156-0.209,0.235-0.311c0.188,0.161,0.363,0.311,0.55,0.473c0.032-1.085,0.87,0.059,1.139-0.745
			c0.291-0.87-1.108-1.159-0.276-2.241c-0.324-0.312-0.507-0.697-0.705-1.097l1.963-0.867c0.441,0.667,1.439,0.499,2.087,0.951
			c0.591,0.414,1.743,1.063,2.077,1.72c0.356,0.701-0.252,1.894,0.934,1.783c0.998-0.088,2.002-0.124,2.998-0.224
			c3.939-0.393,7.894-0.605,11.841-0.871c2.065-0.142,4.348-0.64,6.327-0.02c1.996,0.623,3.642,1.233,5.737,1.115
			c2.108-0.114,3.678,1.163,5.644,1.312c0.845,0.064,1.555,0.183,2.344,0.362c1.212,0.279,1.162,0.201,1.257,1.491
			c-0.505-2.044-4.191-0.562-5.656-1.296c-1.76-0.882-2.274-1.09-4.198-0.335c-1.127,0.441-0.829,1.389-0.829,2.416
			c-0.698,0.148-0.6,1.228-1.1,1.729c-0.894,0.882-1.175,0.191-2.122-0.042c-0.368-0.086-2.63,1.498-3.097,1.719
			c-0.671,0.311-0.337,1.567-1.534,0.914c-0.462,0.357-0.931,0.704-1.423,1.059c-0.757,0.542-0.93-0.032-0.465-0.586
			c-0.529-0.181-0.896,0.17-0.707,0.706c-0.802,0.02-1.932,1.126-2.668,0.627l-0.082,0.082c0.153,0.23,0.409,0.363,0.707,0.393
			c0.028,0.395,0.313,0.498,0.707,0.474c-0.522,0.493-0.661,1.433-1.178,1.728c2.017,0.128-0.196,4.212-0.063,5.227
			c0.166,1.247-0.137,2.456,0.3,3.649c0.484,1.327,0.571,1.846,0.549,3.142c-0.013,0.611,0.354,1.05,0.079,1.653
			c-0.319,0.693-1.447,1.13-2.044,1.522c-0.722,0.471-1.249,0.137-1.96-0.191c-0.814-0.377-1.537,0.016-2.359-0.149
			c-0.802-0.161-2.217-0.852-2.535-1.588c-0.239-0.559-0.285,0.534-0.607,0.368c-0.278-0.141-0.541-0.543-0.785-0.744
			c-0.229,1.262-2.512-0.842-3.063-1.26c-0.615-0.46-2.74-2.262-1.728-3.061c-0.382-0.466-0.131-0.523,0-0.867
			c0.42-1.103,1.127-1.075,2.068-0.96c0.739,0.087,0.914,0.006,1.074,1.035c0.06,0.39,0.254,1.358-0.393,0.63
			c-0.027,0.54-0.42,0.9-0.943,1.097c0.614,0.115,1.646-0.156,1.809-0.866c1.227,0.35-0.868-2.593,0.393-2.593
			c0.861,0,1.249-0.25,1.553,0.784c0.279,0.943,1.131,2.19,0.375,2.947c-0.497,0.495-1.807,0.54-1.457,1.456
			c0.412,0,1.786-0.74,2.045-1.098c0.341-0.472,0.199-1.415-0.041-1.883c-0.506-1.001-0.316-2.029,0.279-2.749
			c0.265-0.32,0.569,0.043,0.823-0.475c0.169-0.341,0.794-0.637,1.14-0.783c0.706-0.293,1.409-0.213,1.61-1.221
			c0.146-0.729,0.409-1.542,0.845-2.138c0.671-0.926,0.578-0.936,0.059-1.713c-0.695-1.03-2.159,0.441-2.67-1.218
			c0.171,1.224-0.289,1.147-0.785,1.884c-2.144,0.491-3.651,2.962-4.519,4.715c-0.43,0.867-2.424-1.166-3.181-1.1
			c0.148,0.206,0.338,0.393,0.549,0.548c-0.946,0.156-2.026-0.508-2.905,0.393c0.594-0.04,1.483,0.149,1.964-0.312
			c0.475,0.819,0.482,0.934,1.412,1.073c0.213,0.034,0.631,0.245,0.631,0.498c0,0.802-1.364,0.043-1.729,0.157v0.078
			c0.327,0.025,0.889,0.387,0.277,0.51c-0.51,0.105-0.971-0.44-1.531-0.433c0.213,0.124,0.424,0.256,0.627,0.393l-0.078,0.237
			c-0.4-0.126-0.668-0.354-1.021-0.393c0.161,0.35,1.544,0.526,1.375,0.865c-0.23,0.455-0.638,0.442-0.981,0.079l-0.158,0.158
			c1.096,1.043-0.029,2.178-1.021,0.865c0.016,0.478,1.22,1.774,1.413,1.099c0.865,0.01,1.406,1.293,1.964,1.883
			c-1.315,0.266-1.676,0.189-2.829-0.312c-0.729-0.319-0.84-1.036-1.491-1.491c0.038,0.287-0.009,0.584-0.157,0.785
			c-0.152-0.239-0.257-0.502-0.313-0.785c-0.235,0-0.472,0-0.704,0C285.867,723.835,282.429,723.382,281.76,722.146z"/>
		<path d="M279.639,729.691c-0.38-0.172-0.502-0.966,0-1.221c0.238-0.119,0.852,0.22,0.982-0.04
			c0.111-0.219,0.248-0.396,0.511-0.393c0.96,0.008,1.137,1.01,1.968,1.22c0.646,0.163,3.279,0.435,2.824-0.669
			c-0.77,0.717-1.578,0.54-0.864-0.631c-0.523,0.245-0.414,0.774-0.868,1.023c-0.759,0.409-2.254-0.218-1.488-1.178
			c-0.833,0.154-1.636-0.516-1.886-1.259c0.566-0.183,1.38,0.059,1.728,0.548c0.494-0.649,1.275-0.155,1.885,0.081
			c-0.389-0.345-0.811-0.671-0.785-1.26c-0.158-0.049-0.314-0.105-0.475-0.154c0.089-0.278,0.83-0.786,1.179-0.786
			c-0.044,0,0.624,1.377,0.707,1.571c0.164-0.473,0.011-0.979-0.394-1.26c0.35-0.029,0.67,0.081,0.942,0.312l0.155-0.155
			c0.148,0.541-0.092,1.189,0.157,1.571c0.314-0.847,0.415,0.228,0.474,0.548c0.139,0.825-0.148,0.973,0.393,1.729
			c0.123-0.513-0.005-0.934,0.236-1.532c0.326-0.815-0.646-1.331-0.629-2.002c0.551,0.299,0.891,0.538,1.414,0.865
			c-0.322,0.834,1.285,1.045,0.704,2.119c1.352,0.86,0.191-1.515-0.079-1.884c0.545,0.125,1.058,0.45,1.571,0.705
			c0.631-1.002,2.208,1.032,0.706,0.943c-0.114,0.728,0.738,0.509,0.473,1.259l0.158,0.08c0.123-0.359,0.264-0.677,0.471-1.023
			c0.383,0.45,0.934,0.441,1.492,0.55l-0.314,0.475c0.482,0.034,0.999,0.24,1.414,0.47c-0.955,0.253-0.363,1.008-0.785,1.219
			c-0.676,0.336-0.966-0.975-1.572-0.275l0.475,0.158c-0.029,0.348,0.027,0.683,0.156,1.021c-0.21-0.198-0.443-0.355-0.707-0.475
			c-0.07,0.385,0.141,0.702,0.551,0.867c-0.1,0.142-0.219,0.231-0.393,0.312c2.518,0.986-0.498,1.642-0.314,0.312
			c-0.188,0.206-0.406,0.186-0.629,0c0.024,0.216-0.002,0.427-0.078,0.631c0.333,0.282,0.227,0.756,0.078,1.178
			c-0.631-0.175-0.961-0.611-1.098-1.096c-0.072,0.336-0.235,0.759-0.548,0.937c-0.022,0.145,0.003,0.276,0.079,0.393
			c-0.23-0.084-0.512-0.145-0.786-0.151c-0.138,0.792-0.722,0.672-1.335,0.628c0.347-0.102,0.473-0.316,0.314-0.628
			c-0.076,0.14-0.178,0.242-0.314,0.312c-0.385-0.359-0.659,0.249-1.098-0.312c0.71-0.486,1.55-0.124,2.276-0.475
			c-0.393-0.049-0.769-0.147-1.022-0.393c0.367-0.213,0.818-0.175,1.25-0.08c-0.232-0.159-0.464-0.316-0.699-0.475
			c0.195,0.002,0.332-0.114,0.393-0.311c-0.27-0.047-0.538-0.126-0.785-0.235c0.516-0.336,1.391-1.162,1.807-1.652
			c-0.381,0.153-0.773,0.292-1.179,0.313c0.145-0.166,0.248-0.345,0.313-0.551c-0.264,0.132-0.521,0.262-0.785,0.393
			c0.49-1.373-0.832,0.671-1.57,0.08l-0.314,0.312c-0.153-0.327-0.336-0.641-0.549-0.941c-0.217,0.33-0.422,1.687-0.158,2.08
			c0.316,0.472,1.219,1.009,0.158,1.455c-0.625-0.853-1.854-0.278-2.516-1.022c0.614-0.1,0.705-0.593,0.867-0.941
			c-0.137-0.173-0.331-0.254-0.551-0.237c-0.578-0.605-0.035-0.638-0.078-0.94c-0.06-0.427,0.309-0.974-0.549-0.943
			c0.119-0.203,0.34-0.449,0.549-0.628c-1.012-0.336-2.15,0.85-3.299,0.941c0.338-0.297,0.672-0.585,0.941-0.941
			c-0.113-0.141-0.19-0.299-0.234-0.473C280.318,729.761,279.939,729.763,279.639,729.691z"/>
		<path d="M279.324,715.316l-0.156,0.153l-0.157-0.079c0.114-0.309,0.327-0.518,0.63-0.629
			C279.623,714.978,279.501,715.175,279.324,715.316z"/>
		<path d="M277.832,716.806l-0.312-0.238c0.373-0.482,1.017-0.52,1.02,0.158c0.218-0.146,0.384-0.371,0.472-0.628
			c0.175,0.082,0.308,0.215,0.393,0.394c0.071-0.034,0.099-0.086,0.081-0.158c0.488-0.069,1.107-0.075,1.49-0.393
			c-0.23,0.017-0.381-0.096-0.471-0.312c-0.482,0.245-0.652-0.052-0.629-0.551c0.115-0.016,0.219,0.014,0.313,0.081
			c0.32-0.315,0.47-0.755,0.313-1.178c0.981,0.062,0.697-0.889,0.785-1.571c0.424-0.043,0.896,0.054,1.258,0
			c-0.396-0.223-1.142,0.034-1.178-0.55c-0.059-0.9,1.727-0.313,2.121,0c0.142-0.076,0.295-0.123,0.455-0.147
			c-0.009,1.077-0.33,1.915-0.848,2.896l0.156,0.157c0.443-0.624,0.592-1.784,1.257-2.121c0.19,0.477,1.827,0.508,1.609,0.943
			c-0.306,0.61-0.667,1.619-1.452,1.65c-0.008,0.867-1.13,0.66-1.492,1.491c0.264,0.231,0.526,0.469,0.785,0.704
			c-0.564,0.817,0.851,1.629,0,2.595l-0.078-0.158c-0.66,0.551-1.043,1.117-1.729,0.475c-0.235-0.219,0.14-0.496-0.156-0.867
			c-0.422,0.77,0.262,0.9,0.078,1.415c-0.535-0.312-1.196-0.482-1.728-0.706c-0.345-0.147-0.985-0.521-1.179-0.864
			c0.342-0.127,0.705-0.099,1.021,0.079c-0.178-0.18-0.255-0.376-0.235-0.628c0.156,0,0.314,0,0.472,0
			c-0.077-0.139-0.09-0.273,0-0.393c0.252,0.107,0.528,0.245,0.786,0.393c-0.089-0.18-0.169-0.362-0.237-0.551
			c0.098,0.049,0.208,0.076,0.314,0.082c-0.126-0.245-0.084-0.441,0.158-0.549c-0.258-0.181-0.582-0.083-0.866,0.156
			c-0.052-0.147-0.134-0.279-0.235-0.393c-0.133,0.081-0.259,0.151-0.393,0.236C279.501,716.837,278.678,717.099,277.832,716.806z"
			/>
		<path d="M276.968,726.549c-0.081-0.114-0.095-0.223,0-0.312c0.697,0.206,1.879,1.097,2.515,0.705
			c-0.25-0.021-0.468-0.13-0.629-0.312c0.225-0.18,0.498-0.194,0.785-0.08c-0.723-0.327-0.989-1.482-0.237-0.705
			c0.456-0.427,1.014-0.461,1.571-0.158c-0.33,0.36-1.035,0.605-0.865,1.179c0.071-0.034,0.098-0.083,0.079-0.155
			c0.419,0.116,1.04,0.507,1.101,1.023c-0.926,0.218-0.852,0.776-1.572-0.312c0,0.181,0,0.365,0,0.549
			C279.045,727.435,277.814,727.107,276.968,726.549z"/>
		<path d="M276.653,727.253c-0.104-0.139-0.161-0.301-0.156-0.472c0.507,0.528,1.325,0.427,1.886,0.942
			c-0.304,0.357-0.615,0.097-0.865,0.311c-0.198,0.172,0.129,0.422-0.08,0.631c-0.572,0.573-0.724-0.073-0.393-0.548
			c-0.297,0.145-0.562,0.114-0.706-0.157c0.182-0.115,0.354-0.213,0.551-0.312L276.653,727.253z"/>
		<path d="M276.182,718.219c-0.211,0.235-0.485,0.381-0.785,0.393c0.139-0.244,0.353-0.42,0.63-0.547l-0.157-0.156
			c0.555-0.362,0.951-0.278,1.57-0.312c-0.141-0.148-0.299-0.278-0.472-0.394l0.157-0.157l0.705,0.393l0.158-0.235
			c0.301,0.245,0.702,0.373,1.02,0.313c0.709,0.21,1.029,1.026,0.314,1.374c-0.44,0.215-0.867-0.473-0.473-0.745v-0.08
			C277.975,717.539,277.057,718.201,276.182,718.219z"/>
		<path d="M273.983,706.125c-0.359-0.319-0.447-0.789-0.158-1.179c0.667,0.341,1.065,1.147,1.415,1.808
			c0.546-0.333,0.582,0.453,1.021,0.706c0.141-0.192,0.283-0.337,0.473-0.474c-0.176-0.181-0.39-0.311-0.629-0.393
			c1.117-0.616,1.713,1.564,2.828,0.866c0.555-0.346,0.07-2.514,1.021-1.491c1.241-2.689,1.962,0.532,1.178,0.156
			c-0.191,0.441-0.373,0.973-0.236,1.489c0.914-1.735,1.232-0.077,2.278,0.082c0.341-0.562,0.757-2.963,0.393-3.299
			c-0.716,0.869-0.354,1.41-0.629,2.356c-1.05-0.003-1.357-1.672-1.021-2.356c0.104,0.131,0.209,0.263,0.311,0.393
			c0.131-1.069-0.097-2.58,1.417-1.651c0.927,0.573,0.269,0.464,0.629,1.333c0.145,0.346,0.578,0.271,0.704,0.707h0.158
			c1.296-0.941,1.699,4.855,0.08,3.299c-0.047,0.491-0.406,1.088-0.942,0.785l0.157,0.237c-0.625,0.16-0.679,1.003-1.493,1.021
			c0.071,0.034,0.099,0.084,0.081,0.156c0.105,0,0.209,0,0.312,0v0.629c-0.492,0.033-1.555-0.453-1.884,0.039
			c-0.409,0.608-1.035-0.393-1.178-0.742c0.184,0.422,0.076,0.84-0.236,1.097c1.857-0.06,0.137,3.093-0.393,2.591
			c-0.275-0.261,0.08-1.297-0.237-1.138c-0.412,0.213-0.629-0.256-0.864-0.588c-0.117,0.501,0.367,0.898,0.236,1.417
			c-0.037,0.145-0.525-0.074-0.551,0.471c-0.184-0.025-0.365-0.052-0.549-0.078l0.079,0.393c-0.483-0.045-0.601,0.452-0.942,0.704
			c0,0.08,0,0.157,0,0.237h0.08c0,0.082,0,0.156,0,0.235c-0.262-0.181-0.928-0.324-0.942-0.628
			c-0.032-0.618,0.951-0.599,1.098-1.178c-0.641,0.147-1.145,0.462-1.334-0.394c0.302-0.098,0.47-0.315,0.472-0.631
			c0.206,0.045,0.327-0.022,0.314-0.234c0.818,0.03,0.311-0.441-0.314-0.393c0.248-0.201,0.41-0.462,0.472-0.786l0.707-0.079
			c-0.463-0.071-0.583-0.347-0.393-0.785l-0.157-0.082c-0.576,1.953-2.097-1.206-0.864-0.312c0.114-0.311,0.224-0.668,0.312-1.021
			c-1.146-0.409,0.063-1.883-1.098-1.886C275.012,706.942,274.407,706.608,273.983,706.125z"/>
		<path d="M272.333,724.661c0.194-0.274,0.7-0.916,1.099-0.943c0.85-0.057,0.173,0.475,0.158,0.551
			c-0.108,0.557-0.59,1.386-1.336,0.94c0.001-0.083-0.027-0.164-0.08-0.235h0.08C272.259,724.869,272.287,724.761,272.333,724.661z"
			/>
		<path d="M272.02,713.588c0.277-0.558,1.618-2.328,2.199-2.357c0.311-1.017,2.165,1.295,0.393,1.964
			c0.775,0.508,0.887,2.227-0.314,2.275c-0.03,0.263-0.185,0.267-0.393,0.158c-0.736,0.971-0.055-1.283,0.236-1.729
			c-0.237,0.241-1.051,1.45-1.218,0.787c-0.138-0.552,0.623-1.008,0.825-1.491c-0.613,0.213-0.969,0.894-1.414,1.333
			C271.807,715.053,271.863,713.836,272.02,713.588z"/>
		<path d="M270.605,700.31c-0.053-0.196-0.032-0.483,0-0.631c1.033,0.402,0.647,0.278,0.982,0.943
			c0.156,0.312,1.281-0.07,0.902,0.943c-0.095-0.145-0.227-0.191-0.393-0.158c0.161,0.158,0.275,0.349,0.313,0.551
			C271.529,702.143,271.375,700.646,270.605,700.31z"/>
		<path d="M270.92,708.089c-0.556-0.089-0.742-0.942-0.158-0.942c0.08,0,0.615,0.208,0.706,0.236
			c0.463,0.767,2.515,0.838,2.515,1.807c0,0.482,0.529,1.048,0.312,1.336c-0.326,0.433-0.945,0.161-1.258-0.158
			c0.184-0.137,0.406-0.244,0.629-0.311C272.969,709.191,271.562,709.234,270.92,708.089z"/>
		<path d="M269.741,694.342c0.552-1.867,2.24-0.392,1.491,0.865c-0.146-0.06-0.245-0.157-0.312-0.311
			c-0.34,0.408-0.781,0.18-0.865-0.314c0.324,0.109,0.545-0.048,0.628-0.393C270.398,694.415,270.071,694.477,269.741,694.342z"/>
		<path d="M269.741,704.396h0.235c-0.137-0.108-0.246-0.24-0.312-0.394c0.101-0.159,0.232-0.182,0.393-0.08
			l-0.08-0.237c1.433,0.122,4.275,2.319,4.4,3.847c0.273,0.148,0.376,0.438,0.312,0.786c-0.645-0.198-0.977-0.988-1.491-1.413
			c-1.019-0.841-2.421-1.002-3.378-1.807c0.051,0,0.104,0,0.156,0v-0.081c0.148,0.075,0.311,0.126,0.473,0.154
			C270.099,704.955,269.715,704.793,269.741,704.396z"/>
		<path d="M269.741,701.881c-0.603-0.312-2.583-0.838-2.043-1.651l0.312,0.158v-0.241
			c0.727,0.009,0.519-0.558,0.237-1.021c0.267,0.027,0.534,0.005,0.786-0.08c-1.045-0.727-0.062-1.434,0.354-0.196
			c0.25,0.746,0.711,1.146,0.668,1.925c0.261-0.148,0.492-0.043,0.628,0.235C271.432,701.537,270.38,702.109,269.741,701.881z"/>
		<path d="M267.07,707.614c-0.215-2.74,4.792,1.651,5.42,2.202c-0.085,0.186-0.264,0.219-0.472,0.154l0.155,0.238
			c-0.244,0.027-0.473,0.052-0.706,0.078c0.196,1.093-1.762,1.01-1.571-0.154c-0.877,0.162-0.507-0.333-0.155-0.704l-0.551-0.393
			l0.237-0.393c0.366,0.172,0.729,0.249,1.1,0.234c-0.389-0.438-0.935-0.387-1.337-0.785c0.261,0,0.523,0,0.786,0
			c-0.25-0.147-1.303-0.545-1.571-0.549C267.857,707.528,267.797,708.197,267.07,707.614z"/>
		<path d="M266.914,706.359c-0.052-0.072-0.082-0.15-0.082-0.237c0.246,0.051,0.483,0.131,0.707,0.237
			C267.331,706.661,267.103,706.658,266.914,706.359z"/>
		<path d="M266.285,695.046c-0.051-0.181-0.078-0.362-0.078-0.548c0.709-0.06,0.604-0.243,1.098,0.154
			c0.444,0.357,0.878,1.454,0.786,2.046l-0.237,0.08c-0.057-0.233-0.193-0.438-0.393-0.551c-0.365,0.435-0.941,0.181-0.629-0.393
			C266.479,695.705,266.291,695.431,266.285,695.046z"/>
		<path d="M265.734,717.516l-0.236-0.235c0.034-0.072,0.086-0.099,0.156-0.082c0.03-0.159,0.15-0.199,0.314-0.157
			c-0.053-0.071-0.08-0.148-0.079-0.235h0.079c0-0.052,0-0.107,0-0.157c0.736,0.515,1.391,0.772,2.277,1.023
			c0.031,0.147,0.007,0.285-0.078,0.393c0.588,0.234,0.872,0.796,1.492,0.547c-0.304,0.475-0.24,0.939,0.312,1.179
			c0.176-0.765,0.715-0.057,1.179,0.082c0.027-0.084,0.049-0.15,0.08-0.235c0.415-0.187,0.834-0.058,1.021,0.546
			c0.228-0.135,0.41-0.318,0.551-0.546c-0.246-0.006-0.444-0.113-0.551-0.314c0.451,0.062,0.888,0.273,1.179,0.63l-0.08-0.312
			c0.345,0.089,0.686,0.266,1.023,0.393c0,0.049,0,0.104,0,0.152l-0.393,0.081c0.227,0.22,0.52,0.322,0.864,0.312
			c-0.14-0.235-0.087-0.433,0.155-0.545c0.295,0.35,0.578,0.688,0.943,0.864c0.029-0.082,0.051-0.149,0.08-0.236
			c0.664,0.158,1.396,0.866,1.885,1.336l0.155-0.157c-0.333-0.306-0.636-0.725-0.786-1.179c0.742-0.114,0.59,0.564,1.1,0.704
			l-0.078-0.151c0.451,0.302,0.533,0.912,0.156,1.329c0.336,0.169,0.572,0.434,0.707,0.786l-0.079,0.081
			c0.114,0.064,0.218,0.146,0.312,0.237c-0.068-0.316,0.034-0.57,0.314-0.707c-0.096-0.211-0.262-0.377-0.471-0.472
			c0.188-0.248,0.15-0.486-0.08-0.707c0.39-0.224,0.752-0.184,0.707,0.314c0.211-0.126,0.377-0.069,0.472,0.156l-0.157,0.08
			c0.43,0.154,0.832,0.352,1.099,0.705c-0.147,0.112-0.353,0.169-0.549,0.158c0.017,0.095,0.065,0.158,0.156,0.154l-0.079,0.238
			c0.774-0.266,1.105-0.184,1.807,0.312c-0.081,0.058-0.104,0.141-0.08,0.237c0.485-0.021,0.972,0.074,1.26,0.475
			c-1.256,0.51-2.585,0.266-3.456-0.785c-0.14,0.859-1.44,1.12-1.808,0.393c0.39-0.005,0.782,0.049,1.099-0.158
			c-0.591-0.084-1.167-0.182-1.257-0.863l0.156-0.082c-0.223-0.104-0.357-0.3-0.393-0.551c-0.059,0.216-0.181,0.37-0.393,0.393
			c-0.189-0.425-0.536-0.828-0.941-1.096c0.088,0.179,0.166,0.362,0.234,0.549c-0.427-0.049-0.658-0.425-0.705-0.867
			c-0.605,0.345-0.887-0.182-1.259-0.629c-0.3,0.802-1.082,0.074-1.728,0.236c0.141,0.123,0.303,0.231,0.473,0.312
			c-0.289,0.349-0.605,0.483-0.942,0.158c-0.08,0.078-0.159,0.153-0.236,0.234c-0.468-0.232-0.79-0.634-1.258-0.867
			c0.376,0.513,0.24,0.879-0.313,0.867l0.08,0.158c-0.604-0.022-0.424-0.607-0.786-1.025c-0.056,0.115-0.1,0.205-0.156,0.314
			c-0.342-0.122-0.528-0.314-0.63-0.629c0.111-0.139,0.102-0.309,0-0.475c-0.344,0.145-0.775,0.114-1.098,0
			c-0.005-0.109-0.033-0.213-0.08-0.312c-0.989,0.166-0.976-0.723-0.785-1.334C267.047,718.086,266.33,717.957,265.734,717.516z"/>
		<path d="M265.342,701.723c-0.213-0.181-0.395-0.416-0.473-0.628c0.703,0.153,1.587,0.867,2.045,0.628
			c-0.026,0.104-0.052,0.213-0.082,0.314l0.238,0.078c0.036,0.602,1.282,0.566,1.727,0.867c-0.135,0.186-0.33,0.305-0.549,0.312
			c0.402,0.233,0.869,0.177,1.257-0.079c0.232,1.707-1.499,1.227-2.119,0.55c-0.558,0.135-0.992-0.319-1.416-0.628
			c0.335-0.505-0.086-0.747-0.472-1.026l0.156-0.152C265.562,701.869,265.456,701.787,265.342,701.723z"/>
		<path d="M264.242,689.235l-0.079-0.156l0.312-0.156c0.654,0.751,1.214,2.063,1.523,2.995
			c0.184,0.557,0.588,0.654,0.441,1.247c-0.079,0.312-0.391,0.717-0.705,0.551c-0.227-0.118-0.86-2.579-0.98-2.942
			C264.572,690.225,264.822,689.46,264.242,689.235z"/>
		<path d="M263.613,706.986c0.031-0.973,0.959-1.819,1.492-2.595c1.582,0.913-0.453,2.429-1.492,2.75V706.986z"/>
		<path d="M263.143,708.322c0-0.184,0-0.368,0-0.549c0.141-0.08,0.273-0.09,0.393,0v-0.08
			c0.488-0.592,1.875-1.784,1.102-0.244C264.428,707.872,263.631,709.471,263.143,708.322z"/>
		<path d="M262.357,709.578c-0.575-0.922,0.509-0.599,0.941-0.078c0.49-0.523,1.236-0.464,1.885-0.707
			c-0.081,0.396-0.213,0.769-0.234,1.178c-0.053-0.069-0.082-0.147-0.082-0.234c-0.082,0.151-0.11,0.354-0.078,0.547
			C264.067,710.808,263.053,710.363,262.357,709.578z"/>
		<path d="M262.043,707.772c0.076-0.737,0.424-1.166,0.864-1.729c-0.14,0.082-0.282,0.094-0.394,0
			c-0.07,0.035-0.096,0.088-0.078,0.158c-0.034-0.071-0.086-0.097-0.156-0.08c0.145-0.923,0.077-1.961,0.472-2.831
			c0.222,0.107,0.312,0.344,0.313,0.634c0.216-0.109,0.464-0.159,0.707-0.158c0.098-0.21,0.34-0.442,0.549-0.549
			c-0.125,0.834-0.623,1.646-1.023,2.356c0.185-0.104,0.37-0.212,0.551-0.314c-0.203,0.593-0.471,2.145-1.256,2.046
			c0.129,0.303,0.08,0.575-0.158,0.785C262.288,708.002,262.156,707.899,262.043,707.772z"/>
		<path d="M262.279,692.454c-0.076-0.275-0.181-0.537-0.314-0.785c0.307-0.31,0.79-1.116,1.256-0.944
			c0.463,0.171,0.211,0.525-0.078,0.631l-0.078-0.237c-0.535,0.587,0.072,0.965,0.627,1.023c1.105-0.678,0.966,1.801,0.158,1.021
			C263.299,692.908,262.598,693.055,262.279,692.454z"/>
		<path d="M259.844,684.13c-0.559-0.891-0.064-1.636,0.785-0.786C260.561,683.807,260.313,684.251,259.844,684.13z"
			/>
		<path d="M260.156,706.359c-0.166-0.181-0.249-0.392-0.234-0.63c0.37-0.147,0.629-0.35,0.864-0.705
			c-1.132,0.602-0.449-1.13-0.236-1.729l0.473,0.314l-0.08,0.312c0.257,0.037,0.478,0.109,0.706,0.236
			c0.149-0.213,0.232-0.452,0.237-0.705c-0.409,0.119-0.474-0.082-0.313-0.473c-0.291-0.087-0.434-0.268-0.394-0.549
			c0.142,0.018,0.273-0.007,0.394-0.08c-0.307-0.179-0.392-0.459-0.236-0.786c-0.17-0.081-0.357-0.109-0.55-0.08
			c0.011-0.183,0.032-0.307,0.079-0.473c-0.732-0.147-0.607-0.616,0-0.786c0.457,0.521,1.483,0.179,1.1,1.571
			c0.277,0.146,0.436,0.43,0.471,0.786c-0.726,0.755,0.104,2.595-0.785,3.534c0.559,0.571,0.048,1.2-0.234,1.808
			c-0.217-0.231-0.191-0.599,0-0.941c-0.191,0.256-0.375,0.519-0.551,0.785l-0.156-0.312c0.227-0.202,0.336-0.479,0.313-0.785
			C260.715,706.746,260.428,706.623,260.156,706.359z"/>
		<path d="M259.529,682.559c0.52-0.787,0.869-0.798,1.492-0.705c0.555,0.081,0.746,0.848,1.49,0.081
			c0.582,0.513,0.477,1.196,0.865,1.807c0.357,0.562,0.926,0.736,1.258,1.414c-0.615-0.033-1.567-0.38-2.043-0.156
			c1.131,0.345,3.629,0.849,2.984,2.67h-0.471c-0.021-0.362-0.184-0.679-0.473-0.867c-0.127,0.147-0.287,0.249-0.471,0.313
			c0.146,0.22,0.176,0.47,0.078,0.706c-0.621-0.144-0.93-0.752-1.336-1.179l0.236-0.238c-0.432,0.042-0.863,0.023-1.257-0.154
			l0.079-0.473c-1.383-0.007-0.889-1.76,0-2.044c0.006-0.177-0.049-0.345-0.156-0.475c0.149-0.146,0.342-0.195,0.549-0.155
			c-0.586-0.323-1.719,0.168-2.12-0.631C260.018,682.646,259.771,682.678,259.529,682.559z"/>
		<path d="M258.979,703.375c0.074-0.498,0.092-1.57,0.747-1.57c0.523,0,0.479,0.613,0.274,0.943h0.237
			c-0.069,0.715,0.006,1.56-0.707,1.922C258.84,705.02,259.238,703.709,258.979,703.375z"/>
		<path d="M258.9,697.561c0.807-0.475,1.516-1.226,1.885-2.045c-0.469,0.322-2.373,1.474-1.57,0
			c0.154-0.285,0.559-0.194,0.705-0.393c0.096-0.125,0.136-0.446,0.156-0.475c0.338-0.368,0.113-0.802,0.707-0.703
			c0.564-0.999,2.145-0.099,2.357,0.785l-0.864-0.234c0.129,0.514,0.657,0.578,0.786,1.096c0.236,0.088,0.483,0.266,0.289,0.538
			c-0.52,0.73-0.477,0.409-0.84,0.173c-0.283-0.184-0.703-0.984-0.786-1.413c-0.06,0.168-0.142,0.33-0.235,0.472l-0.236-0.236
			c0.219,0.828-0.18,1.236-0.08,2.044C260.677,697.467,258.441,698.644,258.9,697.561z"/>
		<path d="M259.059,666.689c-0.11-0.188-0.094-0.349,0.078-0.474c0.406,0.523,1.283,0.53,1.572,1.259
			c0.324,0.822-0.389,1.137-0.865,1.808c-0.541-0.441-0.214-1.238-0.707-1.611C258.826,667.437,258.9,667.012,259.059,666.689z"/>
		<path d="M258.43,678.156c0.098-0.6,1.432-2.34,1.57-1.021c0.494-0.038,0.332-0.477,0.237-0.865
			c0.161,0.027,0.293,0.107,0.393,0.235h-0.08c0.46,0.088,0.931-0.18,1.415-0.235c0.095,0.29,0.318,0.475,0.629,0.551
			c-0.132,0.213-0.216,0.462-0.236,0.704c0.541-0.349,1.496,0.304,1.334,1.02l0.236,0.158c0.902-1.612,2.307,0.704,3.614,0.082
			c-0.588-0.551-1.61-0.129-1.964-1.027h0.314c-0.483-0.169-1.27,0.19-1.729,0c-0.732-0.301-0.846-1.063-1.258-1.723
			c-0.893-0.1-2.093-1.522-1.334-2.278c0.146,0.049,0.223,0.157,0.236,0.314c0.838-0.742,1.354,0.387,2.042,0.863
			c0.476-0.548,0.579,0.194,1.021,0.237c1.107,0.108,0.986-0.703,1.809,0.393c0.053-1.26-0.726-0.605-1.335-1.062
			c-0.784-0.585,0.507-1.339,1.021-1.375h-0.313c-0.097-0.304-0.148-0.623-0.156-0.942c-0.048,0.252-0.243,0.9-0.55,0.826
			c-0.504-0.125,0.076,0.682-0.313,0.902c-0.46,0.262-0.854-0.002-1.257-0.157c-0.601-0.231-0.811-0.549-1.715-0.549
			c-0.383,0-1.109-0.834-1.035-1.257c0.114-0.654,0.312,0.023,0.549-0.236c0.463-0.507,2.113-1.025,2.121-1.26
			c0.051-0.069,0.08-0.147,0.08-0.237c-0.7-0.028-1.771,0.291-2.278,0.708c-0.787-0.467-0.837-2.011-0.157-2.515
			c0.334-0.376,1.166-0.648,1.688-0.827c0.825-0.278,0.696,0.668,0.981,1.138c-0.109-0.458,0.127-1.599,0.785-0.941
			c0.216,0.216,0.303,0.76,0.434,1.023c0.481,0.979,2.068,0.77,2.316,2.044c0.17-0.285,0.275-0.605,0.313-0.943
			c-0.393-0.011-0.657-0.194-0.786-0.544c1.155-0.176,2.93-0.606,3.26,1.06c0.132,0.662-0.51,0.95-0.51,1.573
			c0,0.35-0.064,0.668-0.237,0.98c0.917,0.921,1.51,0.731,0.927,2.133c-0.54,1.293,1.428,1.666,2.139,2.266
			c1.721,1.457,0.9,3.965,2.342,5.407c0.742,0.742,0.607,2.771,1.898,2.532c0.809-0.15,2.057-2.047,2.783-2.581
			c0.904-0.665,1.322,1.293,2.243,0.027c0.815-1.117,1.877-0.433,2.984-0.196c-0.009,1.166-0.452,1.187,0.236,2.199
			c0.685,1.001,0.866,1.453,0.866,2.776c0,0.875-0.516,0.931-0.902,1.702c-0.646,1.29,1.005,1.293,1.453,1.964
			c0.404,0.602-0.105,1.192-0.156,1.882c-0.041,0.548-0.08,1.217-0.08,1.73c0,0.536-0.895,1.476-0.589,1.883
			c0.569,0.761,1.491-0.215,1.53,1.489c-1.19,0.525-2.045,1.238-3.142,0.241c-0.794-0.726-0.959-1.43-2.192-1.278
			c-0.697,0.084-1.019-0.495-1.498-0.686c-0.781-0.311-1.75-0.18-1.65-1.335c-0.352,0.409-2.078,0.782-1.729,1.335
			c0.076,0.116,1.941-0.018,2.201-0.081c0.438,0.522-0.031,0.965-0.393,1.413l0.154,0.157c0.509-0.555,0.598-0.802,0.943-1.257
			c0.767,0.866,1.884,0.638,2.67,1.257c0.903,0.71,1.057,1.484,2.356,1.335c0.319,1.063-0.605,1.732-1.489,1.884
			c-0.201-0.438-1.505-1.19-1.964-0.785c-0.193-0.317-0.487-0.249-0.786,0c-0.107-0.743-0.859-1.237-1.587-0.928
			c-0.858,0.369-1.238-2.009-2.107-1.036c1.016,0.249,0.441,0.965,0.943,1.333c0.914,0.678,1.922-0.59,2.591,0.943
			c-0.508-0.275-1.161-0.9-1.49-0.158c0.199-0.069,0.869-0.291,0.982,0.158c0.311,1.241-0.848,0.893-1.455,1.571
			c0.573,0.331,2.996-1.687,2.906-0.631c-0.018,0.221-1.35,1.057-1.61,1.14c-0.603,0.194-0.509,0.903-0.509,1.403
			c0,0.432,0.33,1.33-0.314,1.304c-0.854-0.035-0.613-1.39-0.824-1.808c-0.695-1.391-0.638-3.682-2.08-4.633
			c0.299,1.032,0.867,2.079,1.214,3.172c0.347,1.105,1.431,3.441,1.143,4.527c-0.745-0.143-1.207-0.605-1.807-0.94
			c-0.491-0.278-1.326-0.443-1.532-1.063c-0.151-0.454-0.135-0.827-0.51-1.217c0.137,0.02,0.242-0.035,0.314-0.158
			c-0.494-0.342-1.285-1.121-0.786-1.65c0.485,0.401,0.851,0.882,1.257,1.335c0.364,0.409,0.971,1.03,1.178,1.571l0.394-0.081
			c-0.313-0.537-0.717-1.003-1.099-1.49h0.078v-0.081c0.053,0,0.105,0,0.157,0c-0.285-0.18-0.456-0.41-0.55-0.785
			c-0.391-0.066-0.522-0.325-0.393-0.705c-0.368-0.182-0.664-0.445-0.863-0.785c0.572-0.147,0.947-0.573,1.178-1.098
			c-0.354,0.089-0.652,0.312-0.865,0.628l-0.079-0.628c-0.185,0.934-0.639,0.643-1.1,0.235c-0.121,0.564-0.072,1.073-0.156,1.57
			c-0.878-0.599-2.091-1.689-0.55-2.198c-0.702,0.259-1.391-0.148-1.963,0c-0.258-0.661,0.414-0.881,0.627-1.491
			c-1.029,0.388-1.064-0.341-1.256-0.94c-0.193-0.611-0.619-1.112,0.078-1.571c0.287,0.507,0.584,0.112,0.865,0.395
			c0.344,0.345,0.508,0.618,0.982,0.899c0.811,0.485,1.176,1.706,1.688,2.399c0.01-0.506-0.204-0.969-0.549-1.334
			c0.136-0.106,0.243-0.238,0.312-0.393c-1.123,0.09-0.278-0.81-0.156-1.259c-1.235,1.01-1.566-2.06-2.043-2.595
			c-0.455-0.146-0.576-0.478-0.313-0.865c0.537,0.241,0.745,0.804,1.021,1.179c-0.141-0.437-0.353-0.868-0.08-1.261
			c-0.549,0.051-0.836-0.27-0.393-0.865l-0.156-0.082c-0.27,0.347-0.511,0.258-0.707-0.153c0.409,0.64-0.162,1.646-0.865,2.004
			c-0.657,0.337-1.407-1.569-1.807-1.769c0.017,0.45,0.381,0.907,0.275,1.335c-0.104,0.421-1.055,0.096-1.179-0.155
			c-0.546-1.109-0.609-1.981,0.038-2.986c-0.217-0.122-0.19-0.292,0-0.474l-0.078-0.082c-0.54,0.376-1.635,2.607-1.727,0.475
			l0.234-0.155c-0.119-0.163-0.277-0.271-0.472-0.313c0.3-2.016,3.271-0.451,3.221-1.571c0.735,0.319,0.839,1.194,1.571,1.335
			c0.285-0.741-0.442-1.259-0.941-1.728l-0.079,0.08c-0.083-0.082-0.107-0.19-0.079-0.312h0.079
			c0.013-0.156,0.038-0.317,0.079-0.475c0.455,0.057,0.728,0.369,1.179,0.393c-0.053-0.244-0.271-0.408-0.55-0.473
			c0.35-0.904-0.574-1.497,0.236-2.199c0.898-0.773,1.475-0.061,2.043,0.629c0.069-0.051,0.149-0.082,0.236-0.08
			c-0.162-0.409,0.016-0.596,0.471-0.549c-0.208-0.076-0.231-0.289-0.509-0.196c-0.474,0.154-0.241-0.342-0.51-0.433
			c-0.612-0.214-0.95-0.032-1.532-0.548c-0.35-0.312-0.736-0.918,0-1.063c0.897-0.177,0.621-1.07,0.902-1.768
			c-0.67,0.092-0.431,0.819-0.785,1.259c-0.213,0.261-0.527,0.354-0.824,0.547c-0.613,0.407-0.049,1.774-0.258,2.268
			c-0.277,0.644,0.353,0.939,0.18,1.464c-0.139,0.417-0.648,0.549-0.785,0.83c-0.623,1.253-1.686,0.305-2.475-0.241
			c0.764-0.334,0.764-1.034-0.079-1.178c0.093,0.253,0.075,0.469-0.079,0.707c-0.309-0.312-0.526-0.733-0.83-1.087
			c-0.162-0.188-0.49-0.479-0.586-0.724c-0.049-0.13,0.264-0.504,0.238-0.546c-0.229-0.39-0.797-0.996-1.258-1.337
			c1.18-0.82,1.484,0.704,2.121,1.49l0.156-0.081c-0.424-0.48-0.457-0.998-0.707-1.49c0.836-0.229,1.963,1.144,2.984,0.551
			c-0.616-0.316-1.381-0.057-1.609-0.744c-0.146-0.441,0.01-0.706-0.589-0.118c-0.22-0.227-0.456-0.436-0.706-0.628
			c0.525-0.308,0.393-0.842,1.021-1.024c-0.264-0.024-0.522-0.051-0.786-0.08c0.026,0.154,0.052,0.315,0.08,0.474
			c-0.457,0.245-0.847,0.582-1.415,0.474l-0.156,0.551c-1.023-0.278-0.98-1.164-0.473-1.886c-0.07-0.348-0.238-0.637-0.549-0.864
			c-0.293,0.997-0.176,2.312-1.65,1.571c0.079-0.106,0.155-0.211,0.235-0.314c-0.928,0.236-1.043-0.579-0.55-1.178
			c-0.204,0.174-0.439,0.245-0.706,0.157c0.099-0.177,0.177-0.358,0.236-0.551c-0.298,0.257-0.636,0.39-1.022,0.394
			c-0.006-0.241,0.076-0.443,0.236-0.628l-0.156-0.082C259.158,678.617,258.661,678.73,258.43,678.156z"/>
		<path d="M258.43,682.166l0.236-0.475c-0.084-0.084-0.193-0.139-0.314-0.154c0.219-0.765,1.232-0.999,1.886-0.631
			c0.397,0.224,0.524,0.681-0.394,0.631c0.152,0.605-0.83,1.518-1.492,1.414C258.328,682.685,258.354,682.422,258.43,682.166z"/>
		<path d="M257.88,690.179c-0.068-0.415,0.122-0.605,0.549-0.55c-0.159-0.117-0.322-0.312-0.393-0.475
			c0.875-0.213,2.213-0.063,2.985,0.393c-0.001-0.239,0.115-0.282,0.312-0.155c0.023-0.271,0.132-0.52,0.314-0.707
			c-1.391,0.485-0.355-0.766,0.078-1.02c-0.554,0.147-0.907-0.528-1.349-0.841c-0.628-0.446,0.979-0.39,1.271-0.104
			c0.716,0.709,2.559,1.03,1.648,2.438c0.561,0.264,0.939,1.048,0.786,1.652l-0.235-0.234c0.15,0.32,0.262,0.671,0.314,1.021
			c-0.341-0.377-0.703-1.653-1.301-1.161c-0.589,0.491-1.698,0.496-1.056,1.392c-0.481,0.348-1.153,0.674-1.415,0
			c0.213-0.139,0.179-0.337,0-0.548c0.318-0.063,0.541-0.245,0.63-0.551c-0.38,0.156-0.747,0.117-1.022-0.155
			c0.107,0.35,0.16,1.154-0.275,1.295c-1.168,0.388-0.576-1.066-0.434-1.532c-0.121-0.033-0.232-0.01-0.312,0.081
			c-0.129-0.116-0.242-0.182-0.393-0.236c-0.194,0.106-0.321,0.268-0.393,0.472C257.979,690.562,257.865,690.4,257.88,690.179z"/>
		<path d="M258.115,692.689c0.617-0.496,1.813-0.182,1.178,0.55C258.768,693.85,257.426,693.8,258.115,692.689z"/>
		<path d="M257.251,686.798c0.418-0.102,0.848,0.001,1.256,0.157c-0.346-0.314-0.824-0.479-0.785-1.023
			c0.299,0.015,0.573,0.158,0.785,0.393c0.083-0.237,0.053-0.477-0.078-0.705c0.387,0.058,0.711,0.276,1.021,0.551
			c-0.154,0.532,0.117,1.063,0.549,1.413l-0.629,0.082c0.378,0.177,0.697,0.447,0.785,0.865c0.108-0.293,0.201-0.554,0.314-0.865
			c0.227,0.374,0.215,0.834,0.079,1.258c-0.753-0.13-1.542,0.147-2.199-0.393c-0.207,0.134-0.4,0.11-0.551-0.08
			c0.209-0.193,0.488-0.303,0.786-0.312c-0.342-0.031-0.652-0.134-0.942-0.312l0.393-0.081c-0.224-0.131-0.46-0.236-0.707-0.312
			l0.158-0.158L257.251,686.798z"/>
		<path d="M257.173,657.187c-0.049-0.352,0.035-0.686,0.25-0.962c2.258,0.763,5.219,0.574,7.581,0.805
			c2.718,0.268,5.609,0.312,8.277,0.834c-0.419,0.803-0.411,1.501-0.637,2.222c-0.199,0.643-1.506,2.477,0.314,2.202
			c-0.248,0.114-0.402,0.315-0.393,0.631c-0.602,0.069-3.557,0.042-3.418,0.744c0.121,0.611,0.364,0.799-0.157,1.22
			c-0.345,0.278-0.529,0.595-0.312,1.021c0.245,0.487-0.347,0.543-0.276,0.943c0.082,0.459,0.508,0.559,0.706,0.94
			c0.706,1.374-0.481,1.337-1.711,1.522c-2.253,0.335-1.384-2.438-3.242-2.356c-2.323,0.104-1.704-1.769-1.723-3.646
			c1.067-0.328,1.403,1.397,2.749,1.097v-0.08c-1.025-0.3-1.848-0.707-2.121-1.806c-0.188-0.764,0.311-1.467-0.785-1.964
			c0.526-0.707,0.666-0.899,1.413-1.024c-0.181,0.031,1.254,0.649,0.866,0.081c-0.67-0.992-1.838,0.245-2.592-0.155
			c-0.051,0.47,0.206,1.247,0.353,1.686c0.129,0.384,0.333,1.286-0.275,1.613c-0.46,0.245-0.546-0.381-1.022-0.155
			c0.301,0.236,0.531,0.505,0.707,0.867c-0.014,1.005,0.594,5.146-1.057,3.498c-0.431-0.431-1.479-0.974-1.653-1.497
			c-0.095-0.278,0.229-0.589,0.196-0.9c-0.067-0.664-1.044-1.631-0.156-2.044c-0.643-0.475-0.59-1.13-0.707-1.806
			c-0.161,0.075-0.265,0.213-0.312,0.393c-1.146-0.879,0.66-1.394-0.238-2.438c0.195-0.084,0.412-0.112,0.63-0.08
			c-0.566-0.147-1.17-0.477-0.785-1.021C257.389,657.566,257.233,657.435,257.173,657.187z"/>
		<path d="M256.151,699.447c0.777-0.904,0.235-1.19,0.55-2.356h0.08v-0.081h0.079
			c-0.628-0.626-0.551-1.169,0.079-1.883l0.236,0.08c0,0.498,0,0.995,0,1.491c0.332-0.187,0.278-0.653,0.235-1.098
			c0.155-0.026,0.277,0.023,0.314,0.155c0.559,0.525,1.1,0.149,1.1,1.258c0,0.465-0.573,0.006-0.786,0.313
			c-0.127,0.183-0.115,0.69-0.079,0.942c-0.262-0.145-0.466-0.33-0.707-0.628c0.187,0.471,1.269,2.989-0.156,1.964
			c0.014,0.312,0.087,0.545,0.235,0.786c-0.411,0.048-0.713,0.358-1.021,0.546C256.18,700.483,255.946,699.922,256.151,699.447z"/>
		<path d="M255.602,686.879c0.16-0.278,0.386-0.303,0.628-0.081c0.001-0.366-0.256-0.652-0.472-1.021
			c0.29-0.112,0.527-0.026,0.707,0.234c0.057-0.147,0.166-0.264,0.313-0.311c0.111,0.708,0.072,1.423,0.314,2.121
			c0.052,0,0.104,0,0.156,0C256.815,688.726,255.909,687.34,255.602,686.879z"/>
		<path d="M251.36,686.486c-0.072-0.064-0.125-0.146-0.157-0.234c0.601-0.273,0.35-1.037,1.335-0.786l-0.079-0.239
			l0.235-0.079c-0.229-0.351-0.533-0.671-0.942-0.707c0-0.104,0-0.209,0-0.311c-0.227-0.005-0.418-0.116-0.549-0.312
			c0.439-0.181,0.915-1.03,1.257,0c0-0.278,0.092-0.496,0.314-0.63c0.158,0.183,0.312,0.367,0.471,0.55
			c0.09-0.054,0.15-0.139,0.157-0.235c0.127-0.011,0.219,0.042,0.236,0.153c0.449,0.005,0.853-0.327,1.492-0.235
			c-0.021,0.563-0.425,0.876-0.629,1.179c-0.138-0.067-0.263-0.114-0.393-0.158c0.068,0.188,0.148,0.373,0.237,0.551
			c-0.802,0.457-0.973-0.698-1.651-0.311l1.022,0.863l-0.156,0.393l-0.08-0.155l-0.08,0.155c0.179,0.034,0.342,0.115,0.472,0.237
			c-0.11,0.251-0.106,0.535,0,0.785h-0.235c0.837,0.803-0.251,1.682-0.237,0.475c-0.189,0.472-0.674,0.692-1.257,0.472
			c-0.043-0.208,0.024-0.327,0.237-0.312c-0.156-0.148-0.272-0.346-0.313-0.548c0.301-0.04,0.436-0.241,0.393-0.549
			C252.099,686.64,251.695,686.683,251.36,686.486z"/>
		<path d="M250.81,677.294c-0.114-0.206-0.196-0.417-0.236-0.629c0.684,0.201,0.449-0.697,0.941-0.55
			c0.144,0.042,0.367,0.743,0.474,0.942c0.209-0.128,0.316-0.368,0.312-0.628c0.973-0.129,1.082-0.196,1.336,0.864
			c0.141-0.114,0.253-0.203,0.393-0.314c0.138,0.491,0.554,1.047,0.628,0.314c0.33-0.011,0.491-0.213,0.474-0.549
			c0.972,0.376-0.344,1.325-0.707,1.806c0.542,0.112,0.919-0.534,1.571-0.312c0.034-0.328,0.281-0.397,0.628-0.312l0.08-0.311h-0.08
			c-0.052-0.102-0.076-0.192-0.079-0.314c1.088-0.219,0.605,0.9,0.785,1.415c-0.409,0.217-0.82,0.237-1.293,0.299
			c-0.474,0.064,0.07,0.397-0.122,0.569c-0.435,0.389-1.057,1.145-1.571,1.097c0.213,0.229,0.226,0.411-0.079,0.475
			c-0.387,0.773-0.45,1.944-1.727,1.489c-0.226-0.594,0.758-1.438,1.021-2.042c-0.541,0.092-0.764,0.712-1.179,0.704
			c0.056-0.145,0.137-0.278,0.237-0.394c-0.447-0.164-0.967,0.803-1.65,0.943c-0.161-0.572-0.401-1.403,0.235-1.729
			c-0.284-0.311-0.498-1.725,0.117-1.725c1.224,0,1.423,0.333,0.276,0.786c0.088,0.175,0.221,0.311,0.393,0.393
			c0.064-0.075,0.144-0.126,0.236-0.156c0.28,0.481,1.181,0.546,1.649,0.234c-0.314-0.573,0.034-1.056-0.078-1.649
			C253.209,678.999,251.511,677.637,250.81,677.294z"/>
		<path d="M249.631,662.92c-0.054-0.673,0.395-1.751,1.178-1.652c-0.136-0.106-0.243-0.238-0.313-0.393
			c0.518,0.197,1.007,0.507,1.492,0.785c0.083-0.216,0.081-0.526,0-0.785c0.658,0.264,1.224,0.594,1.315,1.329
			c0.064,0.525,0.235,2.046-0.058,2.438c-0.724-0.354-1.442-0.852-1.808-1.571h0.079v-0.08h0.08
			c-0.518-0.128-0.994,0.148-1.492,0.313c0.14-0.343,0.42-0.59,0.786-0.706C250.433,662.587,250.046,662.751,249.631,662.92z"/>
		<path d="M248.453,657.421c-0.12-0.44,0.179-0.718,0.628-0.785c-0.121-0.304,0.026-0.599,0.314-0.817l0.84-0.094
			C250.226,656.996,250.138,658.604,248.453,657.421z"/>
		<path d="M247.746,666.062c-0.245-0.677,0.626-1.341,1.021-0.549c0.565,1.129,1.516,2.215,2.67,2.749
			c-0.185-0.238-0.367-0.472-0.548-0.707l0.156-0.151c-0.497-0.183-2.519-1.955-1.885-2.598c0.761-0.767,1.522,2.144,2.67,1.419
			c-0.735-0.017-1.07-0.54-1.258-1.179c0.334,0.079,0.65,0.213,0.942,0.394c-0.269-0.573-0.022-0.873,0.629-1.027
			c-0.399-0.14-0.691-0.454-0.786-0.863c0.91,0.474,2.045,1.398,2.436,2.356c0.353-0.521-0.148-1.435,0-2.12l0.313,0.081
			c-0.502-0.213-0.626-0.643-0.156-0.867c-0.196-0.221-0.245-0.479-0.081-0.785c-0.14-0.069-0.231-0.161-0.312-0.312
			c0.199-0.08,0.409-0.129,0.627-0.157l-1.884-1.261c0.465-0.405,1.049-0.954,1.415-0.151c0.05-1.849-0.927-0.294-1.649-0.156
			c0-0.082,0-0.156,0-0.236l-0.237-0.082c0.016-0.266,0.07-0.532,0.158-0.785c-1.599,0.514,0.399-1.047,0.705-1.257
			c-0.256,0.062-2.653,1.269-2.12-0.158c0.219-0.589,0.977-0.146,1.334,0.079c-0.215-0.201-0.375-0.432-0.471-0.703
			c-0.167,0.03-0.327,0.005-0.471-0.083c0.551-0.541,1.271-0.901,1.728-1.488c0.18,0.278,0.37,0.573,0.55,0.864
			c-0.535-1.343,1.637-1.356,1.178-0.472c0.934-0.487,0.913,1.452,0.548,1.964c1.123-0.082-0.013-1.338,0.393-1.964
			c0.762-1.174,1.449,1.852,0.786,2.513l0.158,0.236c0.835-0.904,1.185,0.999,0.627,1.65c1.394,0.834,2.056,4.981,1.689,6.44
			c-0.092,0.363-0.47,0.729-0.434,1.097c0.034,0.344,0.521,0.605,0.551,1.025c0.045,0.605-1.066,1.456-0.551,2.198
			c0.57-0.683,0.118-2.278,1.336-1.413c0.575,0.408,0.913,2.096-0.236,1.413c-0.16,0.043-0.279,0.114-0.393,0.236
			c1.097,0.478,1.484,0.692,1.257,2.044c-0.083-0.239-0.217-0.45-0.393-0.631c0.11,0.188,0.093,0.35-0.079,0.475
			c-0.122-0.069-0.254-0.121-0.393-0.158c0.174,0.466,1.004,0.659,0.785,1.258c-0.277,0.769-1.202-0.131-1.57-0.311
			c0.382,0.377,0.781,0.736,1.1,1.178c-0.154,0.077-2.463,1.782-1.493,0.157c-0.47,0.256-0.412,0.791-0.785,0.979
			c-0.483,0.245-0.735-0.671-0.628-0.979c-0.267,0.149-0.307,0.409-0.158,0.704c-0.951-0.258,0.573-2.584,1.571-1.415
			c-0.89-1.736-2.749,1.356-2.749-0.313c0-1.323,1.096-0.182,1.729-1.258c-1.191,0.802-1.308-0.313-0.629-1.02
			c-0.489-0.237-0.784,0.333-1.1,0.549c-0.149-0.263-0.233-0.561-0.235-0.867l0.235-0.08v-0.081
			c-0.908-0.325-0.895-1.351,0.078-0.628c-0.294-0.36-0.811-0.548-0.705-1.178c0.76,0.041,1.318,0.339,1.964,0.156l-0.158-0.237
			c-0.494,0.171-0.635-0.14-0.472-0.627c-0.229,0.408-0.901,0.728-1.257,0.194c-0.631-0.948,0.209-0.834,0.627-1.688
			c0.14,0.218,0.354,0.437,0.551,0.55c-0.338-0.816-0.224-1.162,0.628-1.413c-0.245-0.028-0.52,0.001-0.786,0.078
			c0.233-0.475,0.625-0.802,0.707-1.335c-0.606,0.324-0.95,1.306-1.65,0.631c0.195,0.287,0.462,0.499,0.786,0.631
			c-0.333,0.479-0.595,1.182-1.178,1.333l-0.156-0.393c-0.095,0.392-0.181,0.777-0.393,1.097c-0.297-0.323-0.332-0.697-0.629-1.022
			c-0.06,0.445,0.137,1.81-0.314,1.883c0.575,0.262,0.525,0.79,0.629,1.26c0.04-0.269,0.146-0.509,0.314-0.705
			c0.485,0.605-0.436,1.317-0.158,2.045c0.158-0.54,0.667-0.36,0.629,0.079c-0.037,0.419-0.435,0.664-0.707,0.942
			c0.51,0.056,0.578,0.508,0.549,1.021c-1.074,0.147-2.408-1.236-2.553-2.24c-0.123-0.863-1.484-1.021-1.295-1.924
			c0.371-0.102,0.521-0.386,0.472-0.785c-0.311,0.278-0.649,0.283-0.943,0c0.195-0.31,0.377-0.624,0.55-0.942
			c-0.537,0.599-1.27,0.43-0.865-0.394c-0.195-0.048-0.356,0-0.472,0.157c-0.1-0.176-0.095-0.366,0-0.55
			c-0.259,0.114-0.471,0.303-0.627,0.55C247.941,667.492,247.899,666.693,247.746,666.062z"/>
		<path d="M247.902,657.972c-0.046-0.1-0.074-0.21-0.078-0.313c0.606-0.017,2.253,0.283,2.593,0.863
			c0.294,0.507,0.151,0.916-0.393,0.786c0.129,0.344,0.379,0.38,0.705,0.157c0.145,0.153,0.196,0.343,0.158,0.548
			c-0.466,0.011-1.071,0.645-1.415,0.473c-0.511-0.257-0.801-1.197-0.628-1.723C248.388,658.735,248.093,658.389,247.902,657.972z"
			/>
		<path d="M247.195,671.244c0.165-0.415,0.652-0.671,0.944-0.785c0.489,0.576,0.782,0.11,1.413,0.312l-0.156-0.55
			c1.086,0.437,3.065,3.104,3.063,4.241c-0.453-0.344-0.867-0.834-1.336-1.025c0.488,0.439,0.702,1.01,0,0.867
			c-1.243-0.254-0.71-1.783-1.257-2.438c0.151,1.108-1.593,0.953-1.334,2.046c-0.344-0.082-1.013-0.725-0.826-1.097
			c0.18-0.362,0.704-0.147,0.902-0.632C247.992,672.381,247.514,671.713,247.195,671.244z"/>
		<path d="M246.96,668.495c0.008-0.344,0.266-0.409,0.628-0.312v0.079l0.236,0.078v0.082
			c0.208,0.164,0.396,0.516,0.471,0.865l-0.078,0.156C247.809,669.11,247.328,668.868,246.96,668.495z"/>
		<path d="M245.39,664.567l-0.158-0.158c0.174-0.114,0.34-0.081,0.473,0.082c-0.334-0.652,0.079-1.432,0.706-1.728
			l-0.156,0.549c0.231-0.065,0.428-0.201,0.549-0.393c-0.083,0.083-0.191,0.109-0.312,0.08c0.17-0.219,0.354-0.431,0.549-0.63
			l0.156,0.079c0.106-0.18,0.211-0.365,0.314-0.544c-0.596-0.029-0.396-0.737,0-1.026c0.859-0.618,0.737,0.45,0.393,0.867
			c0.824-0.584,1.323,0.76,0.629,1.336l-0.158-0.314c-0.113,0.347-0.245,0.69-0.393,1.022l-0.235-0.08
			c-0.022-0.268,0.003-0.53,0.079-0.786c-0.155,0.164-0.235,0.424-0.236,0.704c-0.276,0.049-0.321,0.274-0.235,0.551h-0.08
			c0.002,0.084-0.027,0.166-0.081,0.234C248.013,665.514,245.769,664.841,245.39,664.567z"/>
		<path d="M244.683,660.722c-0.379-0.51-0.206-2.353,0.393-1.418c-0.022-0.414,0.124-0.558,0.472-0.312l-0.079-0.475
			c0.259,0.112,0.506,0.144,0.786,0.082c-0.146,0.373-0.326,0.728-0.472,1.097c0.718-0.167,0.677-1.13,1.257-1.413
			c-0.164,0.282-0.227,0.596-0.156,0.867l0.156-0.082c0.082,0.332,0.306,0.537,0.629,0.548c-0.294-0.278-0.463-0.634-0.473-1.021
			c1.188-0.227,1.82,1.34,2.122,2.199c0.097,0.274,0.665,0.771,0,1.023c-0.598,0.222-0.98-1.447-1.1-1.729
			c-0.187,0.201-0.392,0.288-0.629,0.082c0,0.08,0,0.156,0,0.236c-0.115,0.082-0.244,0.14-0.393,0.156
			c-0.119,0.472-0.163,1.279-0.824,1.061c-0.617-0.206,0.098-0.988,0.196-1.373C245.903,660.647,245.575,661.3,244.683,660.722z"/>
	</g>
</a>
</svg>
